{
  "type": "service_account",
  "project_id": "ace-mltb",
  "private_key_id": "2489c7fde380bea8c1982b7be2a1c6cbc370981d",
  "private_key": "-----BEGIN PRIVATE KEY-----\nMIIEvgIBADANBgkqhkiG9w0BAQEFAASCBKgwggSkAgEAAoIBAQC5EskqN5bpVxwX\nfUUAVlrkYoFE6lVZP6Tw1Ww/X9+3jagxaREx2ofDcbMKJp9ChlFDxsh1wKbIzWub\nJGkxOPAiibi9UHSFv9wSUSxFJnVZRnGtdQ0EmVigfIDn05gysZGvh3Fal8NquHNs\nAEoDc0sv4mNmvQxjgLsgMvMsMSOYZ1AmEQgZagyubLuGVObpNSaF2uQUI2bpPMrr\nVzoX9NQf153T0Dw2WEBKzWLkTpRJKNXr3IiXohL2AVve6HPaAjQ/6ahJAHou2g70\n0N2CoQln00YZjGGY1BT0WWmpJ77wipqR+WC9k9Htv3tA9fCMuHA1b5tTIEolv4Wd\nUkDAAfQFAgMBAAECggEADh4OkJ+vQtBoGQCaGAWo/EfpUspJ8BC98mMNVU4+a1WC\ncXZxdICWH5oCOBwsb4TTGRzw406VSmGlENoNA3oI6KbhxosnFaFw1kgxMiXWCL/U\ntxBj3v3FjW8XNC08rGKa2YK26lwDm5XuCVyCSNNtdlMfavxbwBFXSi7+GVkMPTlE\nAK6Sayq8sF5xsIoLcVxrHmwwl8sHRIYBnGZM/b0QkyD4htFNR3C7zbQdURacpFSp\ny6/COVyWXeaRNSFA9SucaU/lg4lWml8RZS0+8LR0R7RoG/ZDZtDe8ZlfH2Iz22Bt\n78eQwWEmz9Q3IC2d3YCqP4T5Oty5CdPCc97sE0yxIQKBgQD+AMPEAplTQ/c2MfkT\nLkK17FoYjhQBpwWVukPb0RZSrZUy8k4/nXiuULt+ZcY37VfGhm+8Fjf9UPMjnMsm\nJhViYibI/jbBRt4pqSDkN+jgK0SrvsStPs/SsCGOiZJQpTZX0yFH7xB0LcK2skfV\nTt5Z2IMAnLzm3Euk7am1ipEwUQKBgQC6h0kYioWF/Q/yGOkhINVhSbIkZZ8xzMn7\nS/b0AALA+BliCosJgaHtooHrMTPwtEW06xxSGAlxPYhHPmUyIYQwIvZasOn1nsf5\nQSPGodA9B2+JlP5gaIMDJRwkCjAAAQuHT8FxoXaC+JR3hQGgFDfCsiQVpZ6vEq/a\nqZi5HUgvdQKBgAJ7/W4wXFGNK6DTEk2WuT5QRn1Q/m8ZtBtHzBwdSmuamQf7iLpk\njuadkYfl9O9dGeuuKu+bBActQIOLqA0CeFkS/rAelGiFiey8Y773sQZoRe6sGf5b\ny+qSoHFldRHm28Y2IXAzrWSFgg8JZVx3vgMA9B8QaWSUqQS+8lb9OPhRAoGBAJPB\nWquv/vkWby0tgm6VnbGFOTIPtb0zJcSEdkjuQUAux5ycEWskXuro0dVGkohXpOgd\nXb/B/qjPP0aALJU7a4TeDRvmDE5eyrWtXfOYdmYBn97yQVaJM06odNQvpbo7GbDE\nAs5KQqCY3LKYj6MIoOr/RgpHuZ2hReAGfE4W3fmJAoGBAMZzWam+lITRug6NIq/g\nPWBtj8ISmj2jAG43BxV2ObHY6MX1LUvQiTDtUEPCiLxogAsUIKVluihblBhMRjIq\n6jhXOvyynD9CtRJS3QXb5Y5OmC5SWVDPxAZvBU1d9aPfkyQlfd6rNm8XCJXQO1kl\njUp/415bFmNrsPCu8hrzczeu\n-----END PRIVATE KEY-----\n",
  "client_email": "mfc-kc6j5ky29pc51h9ng377n2sfgu@ace-mltb.iam.gserviceaccount.com",
  "client_id": "100662311981032169828",
  "auth_uri": "https://accounts.google.com/o/oauth2/auth",
  "token_uri": "https://oauth2.googleapis.com/token",
  "auth_provider_x509_cert_url": "https://www.googleapis.com/oauth2/v1/certs",
  "client_x509_cert_url": "https://www.googleapis.com/robot/v1/metadata/x509/mfc-kc6j5ky29pc51h9ng377n2sfgu%40ace-mltb.iam.gserviceaccount.com"
}
