{
  "type": "service_account",
  "project_id": "ace-mltb",
  "private_key_id": "2b19382d8db2001b92b4f885f1126f4316de4c46",
  "private_key": "-----BEGIN PRIVATE KEY-----\nMIIEvQIBADANBgkqhkiG9w0BAQEFAASCBKcwggSjAgEAAoIBAQDDC79SzcbWCOc+\nyN5GXF/AycKc6h1/7ufYx0AP2xJTSNT59ok/S4QZDu8aUEYbZJfToCHeZ/TkJMXh\n4zrXGyZYO0hThWlKdT36l0BB6AyBvwTVaBtPUeWgfPPL2Uh+zOIVTRMdcH9t1Zf1\nH5NHD1xSL1nZ6hCJnwCMCgB9kEdoG8FY+304PEwe0MA1Ku4OusEb/uqaPZ8AZtEX\ng/OJlCrSeOXxLjx8JKe2IceMix9tIe5BJZxVGBHypx6iXl5kyWqjdZNC5AkY2qmK\nPgbONrDjNLWy982EHTNxvtpyIvTqiYoewGunUru+NvjLQegSUPDJn/rAoPuXp96a\nPsjrlVd1AgMBAAECggEAIabW93cj+X03QqSe/wZEigt1faPB+7bxPvxfr+yk/IQa\nJNd1phtGGxmxxLk5Y1QHgv6DoW8PuEYk8xyEpCTdyIbP64Me37cbPq9WaZibAc6+\ni4BnB9gyNW6hlJf0U1ZPoou2AtQMVFuwGF1+iFnc3JwpVTj2afwqOL8oBwH74/jq\nWiCFOS62lcxf8ciBYWqwluOBO8/p1vmb3sQz8sqMrgkn5OtWZ1Jp+YLEelj+il+i\nm8L2o0YpuU5t95Hu0Yb/uF4dreM61OcWGB9qB2fKVooryUGUSeGJlchmSQB1vZPV\nrlr++u+e69pCRZ1DXWk1swoW1hyRpEXyukb9KmhC+QKBgQD6FCSbJ/I1CbGogavP\nShhb4v7Xn0Y1gBZx/XUmxe7JA2B/vo2t2iRGDKHsm4YD3moIiurvMcssLVNzy0uc\nfcaXkzC5lJq+qDOuUsgK5OdQWolllMPQ7TCvoM10Nci7u7+56D8aWz6v1EgdrhUT\np7YwNQ3YgwFoFpAlwd7tQ8nZyQKBgQDHqgWfLH679eVKvX/DAL4syjJCZLL9VATv\n+AWl9ujSmHZUdRUor3ceIiINB9eQP7GksOyQUpsxjHk0WhbrjNmaJKHJsORZedRB\no+45M+5aH/UYmwLRBldIKERhXVnQ5oesz3h5fbE8ammzGCjUG1ms/xkykMWrIg7L\ny7U6+rMmTQKBgDYT/QaAUOQfQIfL4rdksnfMUoeWLbyMAk6MHLVRwB0/2bJGJqUd\nsxJi0PE1gHl9szg9sigfgGwBMTatE6C3oiZM8hBvjjcEcIiV5iRU86Bws51/2gho\nAks4XrVunAXcx80P5/VvHdMv+JhSeMRTVBaAoonbaoZzuqAvmGF+czvhAoGBAIas\nowAbdhx4HsIMEdpJbP0vITlxTN3cxzvJkp3AbohmOCJ9mtkHiZQ0t70MVhVBMSSC\nBf7PCUkhlDuArMcTCU+Ud+BgRZYou8fOuAezhIkb1ylSnVK6MTNFneIComtqo4cn\npf5kjqDOsh8QI7H2BMXQh4F47yugXFSQQdzXbvFdAoGAcvJwC8wB4tyL1mY9cu1u\nMRHPRJ22RCcFnx4XlyFssMmy0bupC8MczEl54WuepS5pY7nKAMMvL9HlXHSVZML9\npeg97pUMiQne0S/StY2VaexVgz+yBwx3WaZ8gz7cssc1dBnHs3sYPJwhfDmq/1l0\nff0vFuZyRSmz43rcwCB7W0E=\n-----END PRIVATE KEY-----\n",
  "client_email": "mfc-g0ycpauknflx63jj85d5pb0wnh@ace-mltb.iam.gserviceaccount.com",
  "client_id": "113871449042807301837",
  "auth_uri": "https://accounts.google.com/o/oauth2/auth",
  "token_uri": "https://oauth2.googleapis.com/token",
  "auth_provider_x509_cert_url": "https://www.googleapis.com/oauth2/v1/certs",
  "client_x509_cert_url": "https://www.googleapis.com/robot/v1/metadata/x509/mfc-g0ycpauknflx63jj85d5pb0wnh%40ace-mltb.iam.gserviceaccount.com"
}
