{
  "type": "service_account",
  "project_id": "ace-mltb",
  "private_key_id": "2f5574394db3c8007f450fd51cd97753503540ba",
  "private_key": "-----BEGIN PRIVATE KEY-----\nMIIEvgIBADANBgkqhkiG9w0BAQEFAASCBKgwggSkAgEAAoIBAQC4JPqsSAuCsMIL\n0+nYHRfmiu/jmaCz2XFtzUIpTTScOPMyBYnZD3Wx7L3duKYFDSBVgOua2xfjLZ/0\nOM3HF6lsT/yAdfFFPBC7SrwFR/LiB42UhN0o9qsUbanPoDaujN3E8gYYKzZyqjXe\nOORvgzvJs4fPc4UmPW/8ZwnJ4aPXXiWLMRksJpWs9Hvt22w4PAUv2YJxiQtzXSkn\nrOmtSxTVLPuT86OA12GfBhZ3uPs6e5WgyN7xRNmIQtjtO5WZRNxlie0Uz+w1OGqr\nJmS8fcUxfTDjRUg5L2133A7QutLp2atVSw1ClHfIiyJhe98Uccb2d4Jgs2q4Omw8\npUSU7Md/AgMBAAECggEAPORhjinOwJtBt5aOS9wnBKHp/LnXBdIAK76Fw9GXdZdx\neBeTw1bU5Q6zpEeEgsQZ7pxQjKcpiYKTU7ea+FyPNlVm2nXl4C6iG8T1Usu9edfk\njfm3hm23Gey/i/xfSK4lQZSExmY3vYgigwcOJv/e++5lmQiKvZ/wUaci+gKm4rba\n105U755a+sCEShaMg0XS22CLfAH9kfXZcwch+FqRm+dQSoKHX1r+g/e69JDDV++6\nFQwe9/v9GaLn3i7DypkjTReAnV+39C3C4jzN9+9wNIG+mUOGl27N9glbs97PySvO\nkVlbJ8ukva5bVcghIg5BCT9jmcaq5P3TChPKJ/tlTQKBgQD391vNupd+IzV9gxqO\nNEijtHpKFfS6uHEqaG675XdL01GVh5zkFuGLAo6mdZnp4nkOw2St0UJMWfzYmUC/\n6V57oIDd7ymi6u+SrG2d8OKaTJbsTgCu6CmD04DJdXGllaGxfJkLHYdeisij3VPh\n3jCaO0LaZ/yjt0RwLQydsqHBNQKBgQC+HEe7160+KhwvIaz8Nf9SaxVVQcrcG//+\nwqNZYbAZbEFgM/YAr8Z1ezd3bFbKINZsd0qX7h6L9OeeC4BKIIL+HN8UgvLYxN/t\nlTPBs4Jb73dyAkfLw2m/1qzRQhhRVBr3iQTtjCMzJ5MBuwnlqrxMRXOAczWCKDxV\nx6ietlTQYwKBgQCLcOiJOmKypi4QVMd8LF6k4Hrcaphi4BGTXYLX2uRJGZ6JTeem\nRE+1Ek0RwpQ4+AhHiw10yXZU5U3Qp+3Hff6J2upc438whJkQjDJgXPOw/Vzpqbus\noBWocim8IHU2PnzdCEov+/0B512I+I+RNpdyQ90GYO+rSQYNZufvTmKz+QKBgFtx\n9v9gCzEvyEbTiAX5Y0sdvzE3aIDf5w+ASFqiJrbT386Kr/Y8ltXD4zZKoqSvjvS1\nnOff3kmsEA1xss/1O41IDfYr1ux2JtB9SFwQINBgK7BncGmPIbrpZE9z34afUiln\neztYgUYF7yyR73zN161IavqKcF6fRAZu96kAQ2PJAoGBAOu7s5R/yysrihoeiFTn\nI6xZvqbS3Mz41lzCSYHNCCPpKHBDlvQWAUQWlX6Sd12O2A/WOQlpPAUCjv/ymnzK\nzLmXf7TI4fCjB3xADUrVIgcPOqBIRL2uGavIWAG1lMEniqfWPHZeqiJw+vJlQ8HT\nAGlhuUEkII3TqI0W83u+V8mB\n-----END PRIVATE KEY-----\n",
  "client_email": "mfc-zjx9xz6pqbptotinlgsfb3yy6j@ace-mltb.iam.gserviceaccount.com",
  "client_id": "110591610515635215674",
  "auth_uri": "https://accounts.google.com/o/oauth2/auth",
  "token_uri": "https://oauth2.googleapis.com/token",
  "auth_provider_x509_cert_url": "https://www.googleapis.com/oauth2/v1/certs",
  "client_x509_cert_url": "https://www.googleapis.com/robot/v1/metadata/x509/mfc-zjx9xz6pqbptotinlgsfb3yy6j%40ace-mltb.iam.gserviceaccount.com"
}
