{
  "type": "service_account",
  "project_id": "ace-mltb",
  "private_key_id": "308f8b7c2f1ba21bc5cd1877ccd18e9fac797afd",
  "private_key": "-----BEGIN PRIVATE KEY-----\nMIIEvQIBADANBgkqhkiG9w0BAQEFAASCBKcwggSjAgEAAoIBAQCyRYnfSp+u0oju\nbSF7dhnz46Dbmn6ya154ANOrpkqap+Z8uqdwNfqZhUGC0y+qNRPfFZSANLckfTne\nMk3y8sl2gOtVMA2MSu03yQu6uLIA/KwkI9m1sxC5xtEWSwCWfjFfcNIS0qKc4CEY\niL7zASkMf9ch0lWjFAsnG4tFwjGzpl7w2s53QsVIKyHZ2xOEHjuMtE75/NjtuVQo\nxrVoEXzsPJYVSxRMzRDMCFfgavDA3OANUIq7v2F8z4Ll3YR3y51Tl7IwVoaDYUrZ\n/jcY13eSk/Hb7nYhA25gZTwCsUHd4yffR/WfvxdgB9NqTQYUzM884E59RFuZc7n3\nSbqUbkxXAgMBAAECggEABka9zzy4roD/DSs5GI2p5ZTytDNA7qsqYkiKgJU+3ym2\nIFdkpGYMx/GRwuIIiueKJuUtm0M/3MBZPzdqLc7ab5pOWWtzA/4cp/AjbOl/wC/P\n0l3owProRdd4GQl+9c1vk4/3SsOxB0Y6JBD8bWBxv4eTXWojAGDTm7GJOmWB4R8/\n5osUH5sgE8dgQt2kFplkR+u+jmABSS26LoLALoWms0RnpbxGqdMcqnvHYj/3uyne\nld2orZ1LSH0AlU4LfrnPTgjTJeQLq9moFjZP1uK8sWMHKg20Ih0xp4XUoM755iJJ\n5ldoWbgvq820b7RNCIqe0QNRwXrO6nMUVDtxE+uowQKBgQDwenTL9ofXhhjqkD+G\nl0DiXCbKkQ2NCFS3hqhNxB5B9Pn6xA4ppOQriRuQLQrnjQcKrOt8YGVsxlZV4h3L\n+iAah29se2nvIOJZTDsDdcU0qAtlYstQGOxDbbym95WRN3wKYUY6XBlwv1qlFbPY\n1qbcs/D+lid7yFBC/qP1CBaucQKBgQC9xzW1kzs5B7wdJnvvRlk4M+DmLl1St7eG\no36iFMS3pXpZsWdUV/ntcVOu2DVu2wuPupuCavYmEq24tFAD/+3bIaYbZGO6FjyH\nNCToDscCeiJpvJKrj/f6tz8Ds4BH3Qsrn70WVzBVMOhT+KZC0le5eRc+NcBML+QQ\nAvRTyJ4bRwKBgQDZMGAITnJFrzEVuI4HStgpGL1YOkWY2Ktazd13zubc/xo+5487\nAVeqEjy4rFWq524ysBZG0PEJmuAi1QPAU/lmvGdf/N6iQHrt17F84ILpmdQhD2c8\nwiWwiI3X5shIzWnUHiLFVqULdWeyrbUu5D70GfhQluC2JSaIO19tUI7boQKBgDSL\nzgFCjOlTjPB9UV+FGPsI0kKpn8lheP1ck5mJKpa2yNPA3R1rZpYqBMOqtdDF8cOQ\nJbLMru8HyPYVZvpUiKVeAcIf38UMlyHQfE+Ml+nFq3WfcvTx3fWbe2Uo9GHxgEBJ\n8G8ZIRbVfd6SQGbMGuIN9zOQangt4nXUe5YfPDfNAoGAMip07N/qHXXKgGrNB7Qu\n6htMB5KwRXoY3OOGqye6VDACi/2Ndt1ik+LLeXkpSObOrhpCw1e9+vf68maGd60C\nh/eIBBv5dP6SB6NWyaNWKgTKD+oSBmMNk6Q+uulcg3nhnYli6BljWyQ8AWKsbPjv\nE+5ng1sh69omI3ykjwvDt5k=\n-----END PRIVATE KEY-----\n",
  "client_email": "mfc-q1oqb73-anxt7wutei4p3d-kr6@ace-mltb.iam.gserviceaccount.com",
  "client_id": "102048466692012796241",
  "auth_uri": "https://accounts.google.com/o/oauth2/auth",
  "token_uri": "https://oauth2.googleapis.com/token",
  "auth_provider_x509_cert_url": "https://www.googleapis.com/oauth2/v1/certs",
  "client_x509_cert_url": "https://www.googleapis.com/robot/v1/metadata/x509/mfc-q1oqb73-anxt7wutei4p3d-kr6%40ace-mltb.iam.gserviceaccount.com"
}
