{
  "type": "service_account",
  "project_id": "ace-mltb",
  "private_key_id": "3a17822ca0f59d798f779eccc676150b137c5428",
  "private_key": "-----BEGIN PRIVATE KEY-----\nMIIEvQIBADANBgkqhkiG9w0BAQEFAASCBKcwggSjAgEAAoIBAQC61nzuTgm7J3/l\n6f07wm9JfYyXFQDZE9MUL1grI443xJqt87TGUgGEe1oLqfV5ulyZlxR3/AURsSg6\n3L6HamqVyfAF3yyE2+pfRo2qRJjKc6orz1z5UjF5zmMh7eCknDmGLLmZL/cMxHvn\nmL8BYDOoHzSDS9iyRPtfsTJtsYH18AZ2m+oOxS4UHZVUNU8f7YRQ0aziHg9lEZ7G\nFL3R0umkJZED65bldbQSRa88b/SZUrUho/t4CSa4xdrKuTbC1BZq+U8OC/zc+GOR\ncKSzWeuEjwvJ73XvR5JtGDAfv+orZ60YQ1oH9v9XRa46JMqvl0Iz3K1mXDQMgG1U\n1clX1aTpAgMBAAECggEAAQkJIK+FUMiF5ihL60dnL/a2fBJu+OtdJxzuP2Qlsj8d\nGOhc8+z5tEb6gQGKvW2wFfhj5RiCdUf9LQeGAib8dIK6f7UH08Wj/Xqp2svUaYMt\nQ6uVIsGKMItZYJNnN2pKzE8WCTIEy69do2ZYIQHfaQFUdgMwoUF0f7t+4ZcGXUgN\nVH+rNtkuW3tF6HDPlUIjs2BskCZUklV/vme6pC7Y5+m86EuQxPotXQoZ+/Jmknx9\nP72CqXVS81bsgrecJt+CTbohAI3RUvNNRQns9VlLR/VvehWqmrup76WM6jWWMfAu\ntis7zIBWoHtcABpIjTqw9qL0iDryjKYqGMtZ+BRFIQKBgQDnDerPbFHkoe7YugXW\nKftwrilvG3Fg1A1pl1bu3YduV4L4ABrfrVgIG4wmHOrQAj8E0fPS/odZk18Ewlw2\nTMRWEmtSS+F+ZoIG88Dr42Jcqev/xdNr/kaV5lJJpvc7d33zgsaGiOv3t3l46A54\nD0BRQxRPzcVYsNn3Pdi2gEqo2QKBgQDPAnnTz5rvl5f08+lQYLF/X+GzjiSK2duV\nXnw3Rv4fOf5m8M0KKSxpXsOHd7gYyqKpWMZ3zYLIM7Hgiud5cPpxeP6Lza2F7CJj\nkPcrfUaGmq/aDoMb8/ysOd+NUyyR2mIqIIp9U9/VB8BOp6S32OGJwKg+Blz+0a7j\nYo9E8RrSkQKBgQDCUW0SZ0n0W8/xC3nPJN2nZYHJRK40vgJNtI7TMxIsVYL7KbNw\nPGvV3b0fbKB6sfjoB97kq1WPmyaFbSR6MlPJA5Ko0tJhKLrgN+4fNMvLnMizAmAN\n6frZJKw97yLsK1GNE4X9LXgujGqnqZpJlKIF9cFGYItBTPLzQVtaGUkw+QKBgGVS\nE+j9Kxtr+l9VZvQFb7slZeYpg29GtHhGl8vCfq0wCHnAEMuRXYBxdoh+q2fO/pCe\nt/15ZDKzQrPhqOxCxQH3M7efwvfSnP5YvPHXTkahvcKf6cIryJdPeEDG3gDBf9yY\nstAm1l6BfbnByhiGGdX/qxk4qhm67buzyOX4kKVRAoGAENRJiAAOAfYig5WJZgtu\nuE3Kh5F++V+IunZ8J5QE1rjWgSb4Lf7Gi7i/plho42Ym+oKXBWiUr+qTBz5+Luxq\n3wnZ4W3p0iwOJn7deHPvCUAKP/uOPFYuryMrSL9VrID1jChLuoCLsS4zaxFaLGGd\nS7z0Al0+k6jHVpJ+lv6+6gI=\n-----END PRIVATE KEY-----\n",
  "client_email": "mfc-5sby9jzp0xrwvpixtr4x1wr3b4@ace-mltb.iam.gserviceaccount.com",
  "client_id": "112839811019338162715",
  "auth_uri": "https://accounts.google.com/o/oauth2/auth",
  "token_uri": "https://oauth2.googleapis.com/token",
  "auth_provider_x509_cert_url": "https://www.googleapis.com/oauth2/v1/certs",
  "client_x509_cert_url": "https://www.googleapis.com/robot/v1/metadata/x509/mfc-5sby9jzp0xrwvpixtr4x1wr3b4%40ace-mltb.iam.gserviceaccount.com"
}
