{
  "type": "service_account",
  "project_id": "ace-mltb",
  "private_key_id": "4ac9b2611453aaf8f7a66a6a736f0fdd79e2b880",
  "private_key": "-----BEGIN PRIVATE KEY-----\nMIIEvQIBADANBgkqhkiG9w0BAQEFAASCBKcwggSjAgEAAoIBAQDQE5YG8N2IwLTl\na2+2aAi5YtN0o4t/qksWujvm8NIY6jva2Gdxnu75iFziIfbeT+RvkC4/0GlfPZx7\nMjsRnYSF9ky/MqOFbSUlUVi/uWIMrStjX2I7r4xhw8baDWMqNGOF5NPNSDWwm2UQ\nFxB8/0xSCr9tzf+1qUN966fds45RKE3fGlz1OYrOSEuwaXmTs3aTmnyNjjKF05Ot\nmrch8uGPYNN93fS6b0K1TG8nMy1UwueKeprNjjKz0/0bZTeTuGK/uSg1Y3vMES/o\n008yd+iil5lROPQ/B0PIwxqukmD8fg3VlNI+UifYTBkvTPU9CyQTRdwk9hEsMpTc\nZx1FOamzAgMBAAECggEAAML8yueDA0o9TBR+f+SI/6Ptq6Du1LFOMNxoQrpBjDpm\neX2B525FaEY7aZwZN/G2UttsWx4LfLNDiUa2S6RP3pOq7to9gGWiLxN8p5ScpMVv\ngeyD9gorxK6l4cxBv18aUo+mkzsYvNEQAVgsRPp3dsEEt8V7LAv23y7UWi3n+/Xc\n0Yzht+ChaJA5FnfNxiSAOEINEEgyVVEjV2MG5MXh5H/ZvaAJwd6BqOebub3JWzH/\niNEaY3esgM2t0bFhOuAart2QijhxjOPqWSqkQdiv75AtWMJFU5LeUEWvMTsAJnc5\n/ZF6Lay1sphfg+FtS2n0G3yXZ6bzulE1Rx72NCdtoQKBgQDt2PA9gKVJM2GGl6FA\n0F4COkmqiys+a7YyR8ijDzOAG/O+l2L07WsivmLgVfjoYYj8MH3JipR0krqjuLH6\n/3TEvYkEgSt10czEWt2VJA5zF3aQC+C02Z7FO3fUMQT2AP3XR7OnbP6cPmicqEk/\nJeAB/klO6QiEAemvq16PW9jREwKBgQDf9PvYAKOH7ytv83E1FdktHBg9ifO+hL/y\nLZ4hhNjr3+fBsQpwDZ1wF7Tqv9IfMZgdEBp6N32rRAM8Y+AH6WIS/wrkOg1euaMI\nHnUdT3VSs6pc5Nvx4FhJr8OToHRcgXK1HoHuXSFrsG+WS1FsapCzDzm0xwS6qCph\nlfCf7dN44QKBgQDK1TNjL59FAqVL02l3zXouKikCYHZ7X/3beS4YKHGB8dR2l8GT\nIBk6YuQNbiO7gNoCPxQ2WJDrrOmvj2VwqIOa+AuuJL28VzNpzBelBT+xVLQOeaKi\nd+eXSXSSJ0+Uvxm6inIh+KhU9D/gQP9d893JtWItAjv532u7HMiiNvB6swKBgC1j\nVw8Fwh6wiBseOVlK3kLYKMmABdgcy1HnkN62L8hODogguz7OY5PuGgphadJMmMl7\nFAKk8GEfXZCFpUe1Mt0qtyhd44vJD5N7qLyR9/MU2ngNIc45a2szpe1rXWnKCldO\noYKPeVB754GMLipMxpqjgUxz8S9rGXvBiYzABFXBAoGAVuct02U/QPdhhN5uahEG\n6JojM63aNdE5dxsad1FYZvh8qUEXwM3CnZr+73MnnlL0PoZoDn1qhKLFColIyobj\nSnvO9Yy7ZocNN3DiPXaf8q8xfZM8S6DSsZQUOSJAr3P0CiDusQmE3nye4cMlf5Ik\nNhdM9XuxpTOnov0BUPtWUgU=\n-----END PRIVATE KEY-----\n",
  "client_email": "mfc-2wit49cbl8s5c7xrqfz1x9dosc@ace-mltb.iam.gserviceaccount.com",
  "client_id": "111454610101633932908",
  "auth_uri": "https://accounts.google.com/o/oauth2/auth",
  "token_uri": "https://oauth2.googleapis.com/token",
  "auth_provider_x509_cert_url": "https://www.googleapis.com/oauth2/v1/certs",
  "client_x509_cert_url": "https://www.googleapis.com/robot/v1/metadata/x509/mfc-2wit49cbl8s5c7xrqfz1x9dosc%40ace-mltb.iam.gserviceaccount.com"
}
