{
  "type": "service_account",
  "project_id": "ace-mltb",
  "private_key_id": "548bf7596f97d9a7ec8209b2a0821e3da07a3cd5",
  "private_key": "-----BEGIN PRIVATE KEY-----\nMIIEvQIBADANBgkqhkiG9w0BAQEFAASCBKcwggSjAgEAAoIBAQCxv/ZVvkU4zX9F\n1CfCpZAXbG8JgMBbxnI34+07CL8v4nDbJsiVr2/ZDchXiDKvlS7UWwxoofg1Ec5K\nWWCPMLpU6vz7fp4/RqwYsWUd7vMG15GChY0HKdFuGqt9YdnfEJ3wAk1/M0XKpX20\ndq4iY0Ts+F9bL8AUK43lIs3dyWUcdyflox+U4ecnDNQXI335PXWBT3weNeh2EVGW\nVjAoI84VX9vCLYcfDHAYQ4inaMzuzTASVs3QUZuWYkpkKPy5SQJgqmwHtnUzQSzJ\ngvRwCNX5nu16bssw/NgWnmpEwzJCwAWJx9DT1ikZHKL0kGsWwOHEtuBaG2k4LoaA\nAysYVn3hAgMBAAECggEAEH1+nPXJ9jsaU6AbEDPL6mBk7LzFG76NWiILIC7vjcG0\nNqCie0CLX9enfndkPGXasljADfT40fOU79Da5G3g23/xeGOGytgDn0bV2rEQWtIk\n7bb2HnQCufQ/dKJfVBJ2lI2iIurezq4Lu3JHNWmAO3vPXOZRK43e3CMedjT47Gr5\n8FLoxjmd8HcerBsUHdqbod1nhnM/1Ayj655rz6STpzF19ebS45f9iYwuoQktKW5D\n4SJWTjr5Ht7tsFxBR3ctRhb9KkxWasadlCLr2DYJEskvqn7Euh6SMLGIkWRZtv7y\nFTcAidwel1ojshPI+o86+4AbMIKXH6kkmR7DNgofAQKBgQDbLExhwaWEXhQR/7u7\nNBodZ8JajPSGZui8TOkD6Kf7EUf0VJmBCHUO3LDHSOarykBd3NF5jTRKixfybeQa\nL125w7275Igjo8ZGPy9FUiZMAYL6/7CkUtgMp6/BtvsZSRlbl11SRGvAmRjcRdu/\nfgvbuZdXpcEEdtvAH8d3xaQwBwKBgQDPndm6EnYlupx/7z9UlVw1N3yRPJdZqu2j\nFiC70wETMbBGx/y/liIcc8DlMQr2l0TZpRc0kzqmMAEOj3NM0v6e9avglqeNOAas\n0xBRAYLSWwus71snKs4LdtwUOFp+OUlQK/hmRXN75Aat6llB5dXNAI0QFs3yIlKY\neFgmUiKY1wKBgEQZaIY7T/1n6d6J0j/heXfHhIj0IQodsZTIZOJVCNSm0u+k1alV\nAmIiyj6xdRLNneBMOz4EVMoQm9k0sdo8+2c73Zki8fX47iNngH2Of92/3n20sqLs\nJrsP4zlSbIS3xMxDpLhqD/zg1OukPRorxO15pf+Svf1wHOl+NlENtO1DAoGBAJhd\nX8wOgGZv7Sp2iiOo+WKUtfZgYTKNHpjxRFSTJdbQQG2xluuDYsU+rfGFbGZL3Vtc\nrQsIgaI02JG29QcMUZCW+ux3o78fvsZWn0LTuQ5ngsoHXv3/i/cd46VzNfYsVIFh\nw4pKrdXeIoi/04FpCt7H6L5F/h4U0kjTCN4WqQ1BAoGAY27gMF1W2tRqaolNZkUM\nZ4kcektvN42s3RUFNQkWIUuWvNmcVzBUkFmvNu92sHACKXqrSeEHtmotZD0rAdNT\nnOYbCmh2SvFZZyeM3bChCgMJIGCEd4gGk1GDPZyaTkuunm0evFXC/arGSzJzUbWt\nraOeh3xii9BguFqvpMt1gPY=\n-----END PRIVATE KEY-----\n",
  "client_email": "mfc-irtef8tudx3qf5j2qm8p693712@ace-mltb.iam.gserviceaccount.com",
  "client_id": "111367212354231711056",
  "auth_uri": "https://accounts.google.com/o/oauth2/auth",
  "token_uri": "https://oauth2.googleapis.com/token",
  "auth_provider_x509_cert_url": "https://www.googleapis.com/oauth2/v1/certs",
  "client_x509_cert_url": "https://www.googleapis.com/robot/v1/metadata/x509/mfc-irtef8tudx3qf5j2qm8p693712%40ace-mltb.iam.gserviceaccount.com"
}
