{
  "type": "service_account",
  "project_id": "ace-mltb",
  "private_key_id": "875706b1d9b4599d7d96499f3a4482bff2d5ab70",
  "private_key": "-----BEGIN PRIVATE KEY-----\nMIIEvAIBADANBgkqhkiG9w0BAQEFAASCBKYwggSiAgEAAoIBAQDihP5Xv/wEw49F\nV5e8gk5eIWFi2TiQqva4gbv/hqJ9BUXzdXgukzWHIXoW0uAdkCtsmIU8ODcReDe9\nZBuLIO893WomAwW02iT0xOkuhglz8UxQK8hwNRL7WzQbHGpmnplGxvmDCojx8g+E\nOcojvF5/BarAXxRgnNpBLQs1njZhFckA3+hOzxcKICLJgW5Gg6QbdgsSlWWFSE0E\nnCfPkBEljpaXHdUFDUiidfQIu+8Chttsgo2fbXmZAwYZU1jXttNMLUHpyt4RDylZ\nD3TCpTnN9R0rKZVPsXocDPtPF3I/5oAWsZrSpP4M/vYzpfDW6Y4S0jwrUwr+ejSb\nisVAieA3AgMBAAECggEAIY14jS/rWRtMgAVy/OHCUPAZ2EX7unYQeJEC810SeXlL\n/L10MVXt0lfTmUjgGJDv1bSb26kqAwTvILcQ22Fj/qJq5DmDYWAEpFr8fT8ubEWc\nO63YkUJTTvcZ90AUxKGOa6zybYYkdc4YnUngFr4Cs0b4HWmX/52MOKY+6FDIlkWX\n95LV1PgRlxSxZI1yqn97I5uP/BsS1KPZyKuQyo6JTchcB679RhZDFuFemUyFP++J\nESb/nqSaMga7ti/2yQLzNSDFg+HMLS6qk82np6cReDLcODdcLp+gnwnxX9DF0J6a\narQn1B9Cgdxc0jlEY8U7pHXbdCo784b1tIagcx2d6QKBgQD1iH/CD6m5fcDJw4+t\ntWXqiJtNtXN56y6gUlsxD2w7q790dy1W6EOS15xydjvmVHfP48g/R06jL0RtD1qg\n8nw6/FQTdlNU/3gBaYDLpTuCaJ6Mvb8buSCWiT2uq+jOIFHTYbGurN1WJjn257eH\nT3tP/gEanv8ajRSR1yVpqeskXwKBgQDsLP+NuEkSGI4eOMeDQT8e4HyGi+aMAAi0\n5bHwlvBz9ZQr/+yQfcSGBFO86qSs9iMqlNf61efvx2eABx5qu8RTqkoc77h1zhIb\nCn1PMZFm7gaAvAN/Wcj2EY/g51JpEUol8PddNRzOOqJGSTnU0eZuqlsRl8gCfL0y\nH01tKJITKQKBgCD688Y6Wl7rEFFJrmvz2Lu3G71FaTxwJbQtO8iMPMqLGE1pkLKC\nwkjgI0iQrx0SLYHEI+q0BlEPEU7g6BiEWcGGkTiIBUt+gT0XUdCI4kRzDxDyj9AG\nfuUZjCqBNuUxHCybi8VdvOFMgy6yE0nemD63bKiJwNRtLN0mHAVkaIxbAoGANstV\n2yaHZXhm+KIJv+0SXPKOUZUBvzd+zaGBACW00eKHJxIwa3GSd9lnKCx0WmCc1hNE\nbMDWF+52l+CO8QpxSUv39/CyJjrSPo3Xdtk0N+I/hfyY/yHwmw6GCBMDLrdBMb5P\nVcOt1DcMUSxKC5NLWB+UE2fYkqMoLgnPJ+VCxskCgYA0sDEs44Y2LsD6jNdl9ITf\nCxo4gjnvnAspzjbf89CQ8BGmiIg+/nDQEE0wmiGLViKQ9J5bPTbZ5KwBCl/CUVd8\nmEX7kFENjAKMDDKg7hXDIDG0E1vMCB0VhUy7HGSsMkgwt6ff0/ffESgvbSsfNfVy\ns1IOSUcNMmZSc7WF2dpyOQ==\n-----END PRIVATE KEY-----\n",
  "client_email": "mfc-jjrkr47cb3i8qto6kl3q5vhxks@ace-mltb.iam.gserviceaccount.com",
  "client_id": "100273638056899242561",
  "auth_uri": "https://accounts.google.com/o/oauth2/auth",
  "token_uri": "https://oauth2.googleapis.com/token",
  "auth_provider_x509_cert_url": "https://www.googleapis.com/oauth2/v1/certs",
  "client_x509_cert_url": "https://www.googleapis.com/robot/v1/metadata/x509/mfc-jjrkr47cb3i8qto6kl3q5vhxks%40ace-mltb.iam.gserviceaccount.com"
}
