{
  "type": "service_account",
  "project_id": "ace-mltb",
  "private_key_id": "8d9d561e9001a1d48cf45c6acff500b0a53775b8",
  "private_key": "-----BEGIN PRIVATE KEY-----\nMIIEvAIBADANBgkqhkiG9w0BAQEFAASCBKYwggSiAgEAAoIBAQDDeH7hkZ6Dd70p\nLo/aQxJU/tAFkFRmdLNHtgp6tJtWtS4q3gbnhrImB7swJbNs3Im24D6D2/FUagSk\n/uiyxWJvFeufvEF8V36el5TUdXr7QAlKGEpo1PWmpWqn2GcLDGzXVlOEhIWjd67V\nL+1n1haH2/MpE/5UwcXWJc74iVeZycVMm78B2Jqrw0GHRF0RkHxXGTqW8xPEVHul\nuGlXASvE+xrsO3DY7Fk1Mk4GfgU2lsXbcxkksNhbJhcxW/L6mTKAMIHEfZ/1P6tl\nHDUmsE5MVuC4Q09YM4eAMvkKw2SUp2lwR82yprXxQyt//9TzyJm/S2LmYzgNkZ74\nORp2PQDXAgMBAAECggEAD6idcXB65Ek5TA1A1Nk+pLRs8aUoPbTnj70ThdTmBMIq\n2qBCqVVu/ADui+LZRsU7+vxnxaRe5sY/bQBGn9uUERYOdBNeo5lWuVmnQIXQvkPY\n+qiLfW5h52Gk86EwUABEz9NIiXscQYYa6VUXjZPm5idGiWnim+OR95+7vskxzU3q\nttKipJgL+FcoBTpN3pkH4paQUuHrsjyKWs0o/GxB2+H/A7x5/TobNxCLCr8y1J1Y\n7MCn9A3hAIYfn7ar3jws4P7aSqVjFOVAeLUHUjpceLSLKdDPx0YjHLO6WQiOPWjT\n2+7wcP0vaTw1V9cxfMI2VxuQx+435Ee2qNGWXtdMEQKBgQDmsWsSbgbHTcThzj80\nIhebj2H/4nnRvT8WcZcFcer2vyMjG81asPDXot4jEscfT/4uQMPc2BDxCJzYqrRS\na6wnOuxY/BOe2GSJlR+LvIu6ehJeqQY/0ShSyJ5XuWw+7V11qnhhC7kk8ZLyrNdt\nQYPHezNj0n5tLM1jzVrA+CkqVQKBgQDY6exu+t5g8+4q2JofboB2G5B3yClbkj0P\nBlFh3gEg1B0RktHd5j8qhfR94cIiRvDfq2GrcRtRNq/bQTQU9SD4SzpxEow/nJiN\n3u626L6IjdqahT5ZJ2CFOxloCL0YS16Qv7mPka+eiLpWFGAGwpHousjo9uFjSI0V\nmEc6Kp0CewKBgAIDcmfKxgxfRWSjJDIUShh1e+l71IxcFnzfqO3HPMHCkU/xIi20\ndaWsKjwsIcjILfPBZPQ8folcBeJuOvytK+d7wCxWpuUwBlCdGJVjo+SQxDBHUWKl\nNLDkR12EpMk30SUBw+M08vy7jwjHMWomtDu9e4lXgPr69R/13uDoSZOxAoGAPWc6\nvs/VU6y5pvdZ6bvmMYjsBHxs+LcVAcPQFdw6hYiGEgt1zVL4Xpk89MWLpxhd53Mk\nWtvR19ObRH3YuHYLtz3UdV3Cxd8WcFLDUJPiG9XMJCHD3IkBEbYBIyoWHWJ4ipE7\nfiDHjiE2Xle2NzOtCiyV4xzAANLw3UQWJakaeTECgYBWOU5ZMpaIeiXFYjlZ1hET\nldlwWERQiO6apQ53Tj/GOMy0DhlX5EVvpCdG6W0J6R06EfiMz3NwMST0qgDbbg8Q\n313RNL7mpBdmeVC6llW0YEiGopI0iElerwKnq/7J+Xi4SncPxHcEjwaN5NEwBo6y\nT1a2qaK4ADdYytzAnAoaDQ==\n-----END PRIVATE KEY-----\n",
  "client_email": "mfc-vo7upmpdpznyt7fl72qu7jodty@ace-mltb.iam.gserviceaccount.com",
  "client_id": "103192038859312770723",
  "auth_uri": "https://accounts.google.com/o/oauth2/auth",
  "token_uri": "https://oauth2.googleapis.com/token",
  "auth_provider_x509_cert_url": "https://www.googleapis.com/oauth2/v1/certs",
  "client_x509_cert_url": "https://www.googleapis.com/robot/v1/metadata/x509/mfc-vo7upmpdpznyt7fl72qu7jodty%40ace-mltb.iam.gserviceaccount.com"
}
