{
  "type": "service_account",
  "project_id": "ace-mltb",
  "private_key_id": "aaf1e1d7c0e0112d295f9ad1b8d0d882a0a71a43",
  "private_key": "-----BEGIN PRIVATE KEY-----\nMIIEvQIBADANBgkqhkiG9w0BAQEFAASCBKcwggSjAgEAAoIBAQC0Q79yPyzDwXmZ\ncQwOa6uzBK3LEqFk6UvUJIJ47+M/vxbaav3Qny93nh/MfDPrKpgMINVPIa8+Hqva\nU0M5srIrs9e+zxQoT1gEvhlgquP4IEnNeqYMIG4xr8hY4NMTC+QXIDKWxP0+etkS\nmQbkO1wyVqW9KA448pczUJJL+NTEKsHzoR32XfqBv5L8Xjrurpb0hY8bryhj6jHa\nkikQFSqQkXWKRuv69DM3YNzc0yQg7XLOk6oHuWGpqXg4EESYmlVSULm5piGKy4Km\nPUJCSc9DplcewTWSUbJAtUObxnVOw3DSs12/u5ZaHrX+RP46c2WpeSv8HPILappg\nYLZmVc4JAgMBAAECggEAUl1cJb7g3MbToT0KdbJTnvXF1PI7xShlqdZOuSResJtG\nvWDCfSam4SBiRiP/8vUgyPXdkQ0Cjb8k5ZpCrqPMDfTb4Iasnqh2PqB/ZvBePlq+\nbgEaypKs1s4LHDUJrHuz6a8f/kyeq4QlF/7Mq87FlwiJLQ8WxIVveZZYahcVXFWq\nqq+dsCKO5c0NBr7stGZKRXW62pbL1KUZz7v4ROVT662eYWOJVRMqIFyyYicp1/iy\n4bc3OGOHU6HjuiN0MJPv0eL6onW0g5KiCxoItPlpXtSHf/thM2U2Y0x6CsQMjsEZ\nKvWHsDUf9GMFOPJROYv8m6TB+23Hz8OAwlGucES14wKBgQDc9cQ1YwJ9AvAKVX+8\nlbXXQeJSgx9kaN6NFkMPrVVioK5zLgjxZ7ULvyjEq4jwSi/HNL8EQHWLA+MwgFls\nEoYIBxK1L6Vn7lc/eH65fo0XKkWvcv8/CdzB1eOy0bL5HBiU86P1zR7Ckq0Vgh0Z\ng4VGWdvCIopfd40/WUvtuOt1wwKBgQDQ2eK8Xr5qmlop/AyKKOH8OUCmRgXFKBq3\nVS0aey6Ja92+ELyaRtAkSgIZqg4DIhe9uugPGC45cK2d9yobXXCZc4TeXh39L351\n5y7m0E/dOMRBBoVPPJV2QiSWdatp4PdU6OGnbWjv0w/2+h1ITx20nur+9VIitRNP\nHsaR3oZUQwKBgDdHlUr19k1oSr2LHmYD3nZ4GTMjctsgEW2iwCxP5SjDomFWhw4+\nL+E8deqeL6hOJx3jaFab+cxJsLEVq0mKaNXhTyDdRrh1vIY4kxu9OXcuMDjwwEL5\nKK2l4U1/gRMpoEzDl6WLJ8LuBzd2UelsKg+rs3siQRQZSNEsef6DYQUZAoGAPvoU\nxtyC6r5Uheh9F4QwcNAK0Ji40LTBKZtDmIKgi8u8970wQg0sYmT2sSp4QzWalxmv\nNC4Eckmp8MJBLjNE6uDMpgkXXeteZMsrd2pFSt39P+ZpeHU6VIipY71jzO+LZU08\nDjKNvBOW8tCE1/MTcA2jqvHqrJCRnAAZvI6vTuUCgYEA3K3xxzWEDqpk1igAIoDL\nUR0Lj7vB+uBju7MFR2OdX3CjGrC8RJv8lq3dChIVk3x2IZdT37tMAAK4ukXULJ2h\nwJoGW0LMGrE9Gv2KLNsjjS7Jmcz3dFjnWBtRuf0JjtN/MMmxsxt7hXkv9rV2y0yf\ncMDIVyxt7Jra9dexTc6d6DQ=\n-----END PRIVATE KEY-----\n",
  "client_email": "mfc-gsw0rzwuwiebkw8itm3vof83kx@ace-mltb.iam.gserviceaccount.com",
  "client_id": "107513646794921683867",
  "auth_uri": "https://accounts.google.com/o/oauth2/auth",
  "token_uri": "https://oauth2.googleapis.com/token",
  "auth_provider_x509_cert_url": "https://www.googleapis.com/oauth2/v1/certs",
  "client_x509_cert_url": "https://www.googleapis.com/robot/v1/metadata/x509/mfc-gsw0rzwuwiebkw8itm3vof83kx%40ace-mltb.iam.gserviceaccount.com"
}
