{
  "type": "service_account",
  "project_id": "ace-mltb",
  "private_key_id": "ac8703d88666f5725eb1571cbd6368e0a6ea801c",
  "private_key": "-----BEGIN PRIVATE KEY-----\nMIIEvQIBADANBgkqhkiG9w0BAQEFAASCBKcwggSjAgEAAoIBAQC3Amch4zzSN5Cd\nKjZoidjNetb3HNNaRBnfb/8ATSI9CBMOFhxTPc1cQ+YJlKGQ8q4HSjhbDmruY6Nk\nNXIVNFEjHhWlQSI261YE4V1r1ywXU5pwKzqPnF0be8WOcI+8mdxfxk3dxvO3gk0Z\nSPtm+K1jpGRFhCMpX5zJVuj08xScVGrVrCqwzdg6aUCal5tD/+suF2zohBo5C2xV\nvPeok30lXhMVxPPSCtiGf5SHcEG6COuWOzvNMCvP7HBs3bV2HDaXYHI21R2jrBhH\n00y1P/ZPeRUQtC54Bw2QCusPkS1LL1HKve3U8uzHAtAkFu6Bru3O3LSoLHXFv1tl\n6E2516y7AgMBAAECggEAFEbJYMlPEKbZuHgYAs7HEm56SR3MqFMkSgvGxTnxQbGB\nKaM3LIfhQXLqbARSPv+MWuq/wg2fuQhEGahhmp+AdTNySCwmcM7z6bgt2XLD2VUe\nJtsQnXRrInjnrhJNnU1aIShqXINHDH183QDSOJnz3WGLlIzWjSZ2oMjRfcDoTIZO\nFcvXwADZwJ4yi8NfZa9OolvD4XIfLsKLZkpvN4cyRUkuJbgi6/4SeYf5C4TT6Xyt\nf7K7RMK6Cqqo12RpppGkSwthBfLEVPe3LKpNQyPX3vIQ8QtrDsPdDLZwJu21q4KZ\nvZHY/NYuH2r94KD3K9txLu3gOMdXSVf+ecjbRESjIQKBgQD6De4WOVJuNFOkO6XB\nldWSaAtbNxNKdhIu+XyQNPQnRchHg2nG+CCRff+ON9L6FeKzlKqkv2Qxkvg45t2D\nPMksZ4wWae3mOaYeqpWhqEbgfxAnK+E4ffdPc0I0IMA1VsOIE/lh2Wzm5dqxE5xN\nY07t2MLZzXFuOnN/zlu9sczLIQKBgQC7XF9tdtsOBjQmBgsqFGgXpNzt4hgLSKsS\nSIUZqRdcJ8wP/tc6+PzYyK7A/HSq1bFPa6XiyL37YDz5K9qWlja3Z6tFaz1WS8oj\n+oL3atUlrM2x7N+OLrOYglnr3l/MkIBzbjauKyMDgI0XEZnbC3HC94/hhKsaas9K\n9LyY4FR4WwKBgALR02R2wwIxHtxUO9tB+EWNXMtrhJErYasb7xalMjebJtX/mlq/\nA4cAd7g/0uY1BvhlbcMr0VJpyNjDaa4IKnCQvlimWyNkdQYVgFhxUFNJu4HlkcWU\nTgycTRvPXrt7Pfsz1nUPAZZc8ylaAkIxI3u1HQVdtrC6ggDn78rkzV1hAoGAReed\nIzZpXL4rztQKblTW0ZuNYqQs3GjsixHLt1tDf/rJRF6M50/m5utZaF/JF8RLN5qu\ndgL3/0ZU+ZLHJ9A78goX+PqeFAiLDwl0u+N8S2ZCCNScRGxgTdK0wjBiBe0UP/0r\nIaiuk6vu+GB0yyll9Jxxbm8Vd/HKDelqRI/OdGkCgYEArKxIYITpLw7oWQq5V5CS\nwF8TKWjO4eZOSAyGYaKwDU/Z1DBcqAtkCB5/suiRNhShdPzGCkBuYLgnB0EJGPg0\nvLrg/c+llBUo+rNVbAWmySVxZVVTYUFFbMtCnSG77VHUfx6ZnBzfPQ7U3InhgP0L\n1oyXwRJPrWirWHHmu5B7S9I=\n-----END PRIVATE KEY-----\n",
  "client_email": "mfc-z9jcznj4z17pzif4zw2pchk645@ace-mltb.iam.gserviceaccount.com",
  "client_id": "115166764479742060817",
  "auth_uri": "https://accounts.google.com/o/oauth2/auth",
  "token_uri": "https://oauth2.googleapis.com/token",
  "auth_provider_x509_cert_url": "https://www.googleapis.com/oauth2/v1/certs",
  "client_x509_cert_url": "https://www.googleapis.com/robot/v1/metadata/x509/mfc-z9jcznj4z17pzif4zw2pchk645%40ace-mltb.iam.gserviceaccount.com"
}
