{
  "type": "service_account",
  "project_id": "ace-mltb",
  "private_key_id": "b3f70b0e42c0b3536e46fd2b0b5d1692187b614d",
  "private_key": "-----BEGIN PRIVATE KEY-----\nMIIEvgIBADANBgkqhkiG9w0BAQEFAASCBKgwggSkAgEAAoIBAQC+PxYXS909ZEjl\nt27DiwUPbPJttzYwYYY//Mdt5OY0gTS2pdAaBXhc5vO+2UdYOMtdHJ/IX31P+/Qn\nAa7WfWhzP2PiAMePQeJKmw9saPnWZhRBZSdxqTFCRPI47OoYAi4PUClccNivMulH\nhrcam1gGe1KT0ibjzuvxk0XP5+o5+5fd5U6qCHtoSSeSiGjJN68Z5YEeNAPp7EHD\nzuoE0vQHkKLJMqU2cHxxVy/6O5ZkYdDy/99gxOm0YbbM1hFfsjkfa+I6kcBVf4Xe\n4Ui5iUdpLxJ9XsTap6WjHWGxfqmJFLLBjN3zq8kuLlceolzQ+4Fhd0ztEVbZp/P7\nt8e9L7lNAgMBAAECggEAAhWBjuYi2XnEkwYsM0OfOtdkaNJcVA7NbtxfYRNBSfPz\np/cYHsPC8GmW4/Q40n0JJUOEMJFEq+By9Tw/ZLEyz84y9i2k6rbqUZcVEYitN5ZN\nClH8WXJNetXoJherv7cIlH9FqolLvaHBxsy3Qmegr39PP894tQsNUyhnwLwaRKfF\nNIe08iMCeeqJTelgFyJJGU08yXKMf11Se2hdoZV+1LDtRiHGpw8EAEL32gDzQ5B/\ngmueptlDiuYCflLNPdcxScUQV1Wc1TPa6K138dheZBQbaURAHNi/SerWcWMFsD2F\nbxNuzv5mMdCiy5+t+fUZ3DvgTfeqF9YBOBTMnfogNQKBgQD52r8zqyosoq3SKsfW\nMC2AqZBPMl+pX7A3F0tlmoTp3LiG2v0zCJasO/s0FmIjaEU+Zq9EZPgqmIveoW8k\niUaDyAVx1Zr+/R+3g4Eu/gTJy1k3tmUSS+1ecSlp3ed8L/Ep8POVHF6C4wRhwOMX\na75QJI/KEPX7GVcJAYZcY/5rswKBgQDC7QG5vAHYcUjh5475LeVemJrcWr1CfBma\ntA5xunXUe4UqXiDO4w13H7cqhCi+blaKcL8XK2spDkAAUCfE5bJVE0NS6iakEsnF\nag44IBgZnI47aOxu5ndzNTbpQYOaRjJ3IQJLDiza2dQPyoAJpmcbsMsNHF6Bb7EM\nVieTI7LG/wKBgQCY/wUkG4T4zikIUCAMnXXPmoV+qYcAjVK3eXE251bKadko4wI2\n9ORm1VfuvmIb8masXm6mv/ljBARqMIqBYfonCh2jZjzCNbftRP6fCvddpkKcpfjg\nKlRRB5RnenWcizLvDtfpj/Sjy2XMgjPNDLH+G1VdU+N8fjjYj/F5s9WAlwKBgQC/\nFsdFRIjunYfcZjukDZk5FhNih9XXsn8LSQ6L8UYH6ptOQH6bMr0FleLjXDHxFYvj\nJco/NYJU+jJF3E5QWPltK3gpdYAyAnUpAeI0pUna+b35gc+enHJnT7ioDGCuQbjB\nTmvIFnpkhXy9ij/gte+IltVH4hLHgy4msOMU/L8LEwKBgEMjW7Evswqg0r12pI1q\na7JJ9sh2T/I4zbe86mqEYYArVEOTTcOqM5GFx9dXepvmFmDqXB7mz0KKyIEjjBU7\nL9p2g94F6NMiII60lB88DucVZL8X6YVHmq6bK2YmZY64hzn7DDPPbNEBT7ohQImu\np+OWiqQ6Qu06FU+tyEr02QHV\n-----END PRIVATE KEY-----\n",
  "client_email": "mfc-z773grfszvqolsazlcd6trx8yp@ace-mltb.iam.gserviceaccount.com",
  "client_id": "110098453034993453349",
  "auth_uri": "https://accounts.google.com/o/oauth2/auth",
  "token_uri": "https://oauth2.googleapis.com/token",
  "auth_provider_x509_cert_url": "https://www.googleapis.com/oauth2/v1/certs",
  "client_x509_cert_url": "https://www.googleapis.com/robot/v1/metadata/x509/mfc-z773grfszvqolsazlcd6trx8yp%40ace-mltb.iam.gserviceaccount.com"
}
