{
  "type": "service_account",
  "project_id": "ace-mltb",
  "private_key_id": "b8c7e0c99433c1287f7bc94fc618d9734f5b1789",
  "private_key": "-----BEGIN PRIVATE KEY-----\nMIIEvgIBADANBgkqhkiG9w0BAQEFAASCBKgwggSkAgEAAoIBAQC4DBK9nnfm2cfQ\nEYzsnYXulfFg1ZttqicpcyZZOXoElB+PhH6XIH6kZ47wUhhcIgMdo47wPE/HabXm\noA6Tb2TQkOxAjTkB8593Q3KoYnNQsAv2cPMvuv2v0LvdU2E3xn8mke/qy4QQgJXv\n4YgHtrpU+qJQFPHX+NRDouA8FEhqgitTfZbzS3ok9g4c/U0FuD1NPtoOAQcOueds\nJxxGd2ARh7UiGzSypCEkZURm2Uv3KbdeohaH0GEEvBy4sQc92HWPDwXqrfnwxhgb\nHF720uqgdPkiBhRB8ba1cIAKeFe92ECovBGklXMsYjliKneRTbIhHAQE257zb/JM\nlC/hYbnfAgMBAAECggEAQgnW+aHwXO181ExP2CEHix3TQA81V4qrxaQzOOW2QglS\nL8F3WMvIlT4xXErgwcJUguCKq+nAKInmQovg3wcj0fCGTP0/XNNpPzZ84C1/Og8J\nI9LQd6ptV5YaqqY95nD7c7/+qa1/xBoXcrzmffoTbuWFsx1oz7lRlLlPI0+V0l0p\ngQzBnHnzrmmZ+kFj+DB9dY9aIhvj+hyxDm3iaSu1LAlqVoTHKZgT1/9HmBt4GRAE\ncD10XvA0rZCHo8jYe8D52UBVZObvGPB1JLexRDiYmTfyrReYKeRqEEwgFZGuLzld\nQnkPsypva9PQ7GD0qMqN95s89NlGk/QSfKVtkkXF1QKBgQDokwb7bYMX4xzAvSVS\nUNHbQNPbrAq1Dg9//A8aOTJq94swH8XCgmxNS64yE4F76CMxulqS/eSxStkU4IYw\nDc03tKQxqOXC8AVoXfGThW+buSQ6QedHRaBDnpZpl4qzav44jn6onKM3G4NL1j6a\nV/SMLgaBVaz8ZXjH+rgxxEC9nQKBgQDKlcONFEZONhlrSrhQTOWUy4rS0i3n0PcC\nlEO9liB9VOtPObNwBJUm9U6X7NXsps2MQJ7ht+5sUHoF9ovNm0UzK87JbCHXx9lC\n/3N2OvOorNaiMz2iPuCCOuDmAI7VqBTA1hIq31lnibwh05lVayEsPXrNeocDCd4q\nTna1Uyu6qwKBgQDPm9+RtZJeUmgqTS3xqx+J/vafk5YDRUfk0ZaRrBkrj0n6bYJV\nPaN75GDdZrghaXlxPI75xBbPhKb/keV3I/rbDS+8/K4NM8FABwxMycJ1WfHS512T\nK74CXqCaJaK0wn+o8NpznU+9M5wiqF892+H6+GLqNRa0P8hvi4m9MxkvqQKBgGUL\nLe5AHpEECsmpCyWCNUByBVwB2UO2xn1S1jbJmorowDVT4lwM7RfxYrIEPu86g2th\nD94lj5YWzcYLos96kpljUFDGzlqCI6t3Hm/qF34aNzPPuv4hvnk2RNZzkMqgezlz\njLw1irJJ0LxOfjxMos8eGxJB+vVZBqazXCI0yarhAoGBALeZ3ecioZ0/Hn/LFFff\nQ+TMCy9g8QXMruS2ng4YDtyUAcA9NUOwEmIPQjlnElVpi8peLzSsHvw0cTPgLeK9\nPLazMitfX75yQp9tPwg6h5LYzF99CY/BkHcSkTwuhwUCN+V6NlJU3O7k/ISj1Y7H\nwhbJHK/Dn1S29qw8rYXOpj8X\n-----END PRIVATE KEY-----\n",
  "client_email": "mfc-8w0tfw18svz5m8yg83cos7k37c@ace-mltb.iam.gserviceaccount.com",
  "client_id": "118046012946938254445",
  "auth_uri": "https://accounts.google.com/o/oauth2/auth",
  "token_uri": "https://oauth2.googleapis.com/token",
  "auth_provider_x509_cert_url": "https://www.googleapis.com/oauth2/v1/certs",
  "client_x509_cert_url": "https://www.googleapis.com/robot/v1/metadata/x509/mfc-8w0tfw18svz5m8yg83cos7k37c%40ace-mltb.iam.gserviceaccount.com"
}
