{
  "type": "service_account",
  "project_id": "ace-mltb",
  "private_key_id": "bcfbc14773b91d9653cd9319df8da29b644e48a9",
  "private_key": "-----BEGIN PRIVATE KEY-----\nMIIEvgIBADANBgkqhkiG9w0BAQEFAASCBKgwggSkAgEAAoIBAQDMfckltvNgvWon\nM32eEkctc5j+NiIR53X6cG7vAKRjn9SDs+azM+Yk5T7HiCXJzcWuCSW+NpG9pnh3\ncz3+pGsTmDNf4R0F4b7AqHE12FCSB7GyXPGscJK2z8yrHcBkttTx9CCWUjH3pqYW\nXtfU2ggiG798paZCOz/aZx1w1oDj/e13kLIjiA35tc8kPCqZBr1W9kBrYkfslsTe\n4LoKTIzCv4AN3Rj4UZrS36SDEjaBDIOr2vJRfdLSmU7W1i6xpnWtrAoB0mmXYU5X\ncxvOCWEzm2JFSZsWoXGEiYPp+nJGX2+jDts+4QqIADvUrUNdNDlb9qe6q4goG7rM\nc4w4nMVbAgMBAAECggEATPf1a5QqlBmHaJzpZcN0dgeiKOEAPuPzlKGYJ66CsZrZ\ntv7SUVYyBGYjFKBKtOQWSVTZF3jbr1oG0tMWHRAO24+4mpiVP38COOrNvdofLW/m\n8v8n2eN/XX7mhuvKXD4y9aURVPM4KoJX1mi5bTzpvcja8NQ6uYgqlw6j1rJuTiG7\nV5JvPlOqVmSTFy7pyCnF0HG+r3M93DTE7v1RYL9gdTRkAIQmsoWVDm5ruulVkYAd\n9tkjG9mB9tDz15P/hY3CN3oXGVxUYHKYLfB15Juo0n0Qo5EUKk6ks+xbEUVqSmDT\nUG1hl5iaDIMwy6ov36TOm1f9CqxKSXtHfIFKZkhcVQKBgQD4pR90DNFufVQmPa12\nUJkeTAkCtqksAwI14eNFCDECeIE0Fx5Ht5h6XTR/M2f1pYngcj2QwKlMs0zOPd5d\nwuYVWN+zSyvrVYQL6yeRVOgKsz/F9hdn5NY84qWmqALg94KZSi+X1QdmkLAu+LGi\nWI/ARLUOBuLH8sdWl9SqvU6fLwKBgQDSik6Xm1xvrHa7hsilJqWsWFX4NRxEkvbF\nAiU0zx90rUr2AkDGJte3GLkg4v79etZI7RtdmfopaXdd/IqrXRZ25ABc7NxY9gGj\naRjh3vrKGHRHIAk8SW6E8n7hiDinG/e0Og1zVuXamu4hXiebACmYNTIkvX/wYVuV\nb5tBMTgRlQKBgQD0rilhniuKOzLP3uoQAAht1A0Z6n5XnS5Tr9JiYEk6UTNz+zwE\n/xrBb271rbSj+x7PDByhkbYIkHkIi8GDKwQYBbk9SsARebnTsLjjP1aJERO0zxMB\nXiOlDrRMaBFNKMQP7P0gwLXjrIZz8q97PwNXBUXWY9hPQw3+nLLewiPYaQKBgQCr\n1RWvxqz6t9dv1eGMaK5uqun/WdloXknpIIcdQq55m7XCcrRLBQip9xOhM6LJXqfl\nfR8IldMGWX2Cx8qlcaQUBKIHNYnhUWak5/HW5xXoO20rX4oqGgSJnSDREUyrlrfj\n8D1qFVIjyK7xrNbGOqu3/jKeqcrxdYQ5wo0D+Be6wQKBgCs1WOyyeRIPoTTHa4rT\nYzxT0qbPcJyM1YJIt5MqvJvfdQ2KAi18AFCPMuiCZIQOlfLihDpCfpt3kpXoYz2n\nvN02dkoUrbeY+mVxju5+zLqvofPrPQA4c5129nDCe265/TqCOb56+miuoe7e+T3q\nJyJ9OlQ9Z2dWNQkQFiSla3dL\n-----END PRIVATE KEY-----\n",
  "client_email": "mfc-woxlt5kkh3fatm6xuwu1g39g66@ace-mltb.iam.gserviceaccount.com",
  "client_id": "104838633385363353035",
  "auth_uri": "https://accounts.google.com/o/oauth2/auth",
  "token_uri": "https://oauth2.googleapis.com/token",
  "auth_provider_x509_cert_url": "https://www.googleapis.com/oauth2/v1/certs",
  "client_x509_cert_url": "https://www.googleapis.com/robot/v1/metadata/x509/mfc-woxlt5kkh3fatm6xuwu1g39g66%40ace-mltb.iam.gserviceaccount.com"
}
