{
  "type": "service_account",
  "project_id": "ace-mltb",
  "private_key_id": "bd72b852b228a8c07be9abf85028c2f448719e39",
  "private_key": "-----BEGIN PRIVATE KEY-----\nMIIEvgIBADANBgkqhkiG9w0BAQEFAASCBKgwggSkAgEAAoIBAQC+FSd6AfYRcKd0\nEP03ZRk/HdJ7KWhDUACUnjp5Gu4WdTRGLeP/9fTIKC0ewN/Moz8D4AG03o6UkYrN\n/hBoFMW49EPCTDqiSiRDRqfzRtZYQxkhziT8WHftI/5twkqGSu62LH7O8oxDHM/U\nkfjwBIfuKS+kSS3wQiItyi6VWe8JOt/qW5Xr//2LCduhvmPKmTfmxXyWLeedwntv\nzot183MthmsvKNWd4/6SrQpTi+jI0sYtFg8oaR3zWnsBnNbVpCXwhAN2r6QdHjhc\nM8PFrJQ0G2fut03Dy4dPqHaJYJ9K9DB3fWRyVa+s5mSYu+KbbJZ22dRSZ5vrih/W\n6w7QWwI7AgMBAAECggEACgLk7jxqfj3MauA/6Dfaoo08+ilb25aXY4WcMswfczft\nE3iY/5VUa/wPb7wTsgoPDQTpUhkaH6GiwHmN/oQ3Rt7LL2O5kbV7GuNsW2E8Bfl3\nTInvPwoNO4R7OcL36m/uLq4dQxrHO0UXx2xcMGpRP5vvtrcb+28yi+5G/4h1Wj2U\nBVhQujchCgsNl/PtMaSyTvPXVcTpb7coFS0HbElP6JLFgSCkhM0o+FrCWF7PUdKl\ndAOk/LKZ+DLxYopCh8u3dGOHR5RrX8Rm47hiB2g0dFM2ZSzaptLBwQNkINxei8g8\nDbgoZVXK9KhAEtcgEqi7/2FjbFnNkL4ZbWv+978z8QKBgQDpqTiYSUUwnbgPKYGF\nSxWPu26Euagmq7bEZeDJGaG+XyOF97czkDhHR6MSAq4uobnYICByM1xU8ZrP3xpX\nfAbYdt+vDZ/5mDN8wo/Zpcep6TbBMMB03qGW4L4qqteGv8LkWBgZq+HOIbf2RMGp\naZark5hymv7hoU4BAa+NYZBCJwKBgQDQQV20JpYcnx7Xf7ChpnhdtiAFiXAtZK8F\nvHApi2m+KNxfo/LQaqgLuubDbQbxsB3LNQicMLBTJo1Z6InK02XhzKf6VT/YfQIk\nSthboqnTY4/r5k18bGbcYhLgOZ3tc94jOpEwmbS5FEcl8iM+YY9TicAwPDlEhCbP\nw9tWGLRPzQKBgQClwI8PKFrWo+tfhhgFEEBZV6KMsI7h78mVBJgyz+X2/9JZRGJH\nR7VEi0LYkeIx3jPRZujdWiXTdBhYAXHUQX0xrRH8QfQLwLY1eGdHA9zhYTigTw8X\nWJ7UQtVjuxFs2zdLeFqQS2fBLBYtspSWsvpY+Diag+zu7dhByopYBq+o3QKBgQCm\nLTKfWRb5WcNbhCmmo9ZyOKzOnj/kCO5cLmR10igbtDE9I+7Sffj/+zC+ilY7LyRn\nDTeEoplgkGfEcXjaXttyVUNIzxO2JPI7kXmZjW/kHRMv0sLL4RgnDR8wyukJHCcK\nh2ZpmI0MDnFDhza2RVT//PBdzQCJesYZjZiM2AOxlQKBgDeyeo0FulIdz89Yg5nQ\nI+EowkUzwsGQ+9jXIxbpSQR3FVDvgKrHMDcQOMIK4BUBrH2HU9SO90brtWecOr/k\nRpopX9ON8H0iDbzudgz3z6EwLtkSUPlhmO7JquUSL/o8eTodnESyUciyQs6c/0Un\ngrtmhXfOhE0DHAneBvnemd1r\n-----END PRIVATE KEY-----\n",
  "client_email": "mfc-9kybq2qbe85qh0zh3awi-x1pef@ace-mltb.iam.gserviceaccount.com",
  "client_id": "107977446294121245453",
  "auth_uri": "https://accounts.google.com/o/oauth2/auth",
  "token_uri": "https://oauth2.googleapis.com/token",
  "auth_provider_x509_cert_url": "https://www.googleapis.com/oauth2/v1/certs",
  "client_x509_cert_url": "https://www.googleapis.com/robot/v1/metadata/x509/mfc-9kybq2qbe85qh0zh3awi-x1pef%40ace-mltb.iam.gserviceaccount.com"
}
