{
  "type": "service_account",
  "project_id": "ace-mltb",
  "private_key_id": "1365e8bfd6d303a285f570db961aa263fa7734af",
  "private_key": "-----BEGIN PRIVATE KEY-----\nMIIEvgIBADANBgkqhkiG9w0BAQEFAASCBKgwggSkAgEAAoIBAQC3Az3LUPBaZVC4\ncvOzHsIUIgw8w3NdrnjP7j1lWym/JJ2atNGVCokgr4CL5yR048etcMGZs58fpjlG\nIFZ4ItlS+mNR38ZHfOv2FONlwCZpzhi+Rpg61XlpPMRa9v8zuBEx2OsEpOeLnAOl\nd5Xbr2ubrHprbUED5zTJqr1Rkx75y9bKyq3rnN4+qVKATQQdBahyTcXDCRMBOT6E\nVnsefadbwG3Onwbk6eSOCu/Devt4sihFDzYu542WLutHqbZU4IWjm6mWc9RUqeRi\nVwgJzT866vLpniaEsstj6gimeeIxQovzG5HBflhmLhxwt8wN2PMu94AX1CeuzNRK\nFqztvrenAgMBAAECggEAEPkN/BMvl1KaH+EZVN1fZnqZ4/DEfEW4EqCntQS1ZHLC\n4xwt68KkYRGlvFPdf7G4TQ+OBPExqr/BxA0vt8iTmyx5lZhJTUv6nkHlrQQbC+j/\nRnZJm/s8XVQzabRKisNhZNwXP8EDcGExvWDP1yX3tuJSIDBrvS7uKF3bXPtl/giP\nZkqwFzwSd2n/goqV9dbb3NF8XOuygGqdgz7fvxgS2WKYnLaMy8p9/eF05jI4Ba+I\nAAjhuDJmY52MNUzhyhlncS6mct4MZDGNQhOp7trpAfb0iSubZq7Va+fROTJVELpl\nbU8piHYsMSvJB5c2CRL8WNM1z1CXCu5ZHAVPBDpIkQKBgQDbB6mKo7/AV2kgMyQM\nZT3HAqYXw3dnXFZJwR4744BlFLMun13IxVvVH56xBJvgPsM6p1s2XOqQU/qc/VAC\n3LuUgeVObdib6j6DfpK6cCQC9SADioVlx1C74zlAdN4QeysKlwRBzVxflPHOSRH1\nxY7vH0Ye9Ckv6U4DoojL6jjMvQKBgQDV50OTPJGm5XZSoEyUTILRXDkxj7K3WTGN\nqSx/AAe08tY9RrVX+FRzUnqd8w1YDOJ5YrL/sMsYd4ef9z7eDXLMIFxSKlq5oIC2\nvn6jP6i8XLUDE/M+KIYxwauYjnU6Hz5qtkkPx6rU4A/8zpkMb4BKJ829se3sFSBM\nTPsCDf+GMwKBgC+Z67PQwKSpmpQ/6Q60lgeBQN2bQoD5JVukF9EGMWpGZGa2hehT\nVBDubUulZ8cFfOJrarxW1zeEuMuTleb5V97/l/lCkDfaYbmsMXFJW9o0sb9zRGiJ\nN7eNu2yRuY01Z3ZGucsfOXsgYKjnYnrac6TuVAv4HldmSekqUraWcb+1AoGBALKM\nnZKcn3Px3CeyWNn9V8FMuw0MxwBW+o8mJNdJ/iTkA0MY76yjxFKTCXko9f2Gm9D5\nOzNFrvIYbGRx7M9L6IRNiuKnKh4CxQ5Fys2YCNBajlooYAWFrCaCZCsu1tmSVPac\nfDYo1AdnlNDQ315LAIpl2U475L8JD3HBXFDlwGKTAoGBAM2ZB4KJU+OxgAeWlpUh\nMSJtP5pBYGIZsH4Qfdbvm6inUhi9dPne6Yp/YQ4TA5TUKjs2L84uT6YTg9IzlNLs\nvAWlKQg8proTbX8IMRFYP3AgF7LOVf5Q/c6PGRw+JHpFS9z/iFC/RUJw+PywCpKI\nheej3fA2bOlfBzlceY/7lqxr\n-----END PRIVATE KEY-----\n",
  "client_email": "mfc-4l-mzdg51gpluixp0xjx66njmt@ace-mltb.iam.gserviceaccount.com",
  "client_id": "108010412920664475918",
  "auth_uri": "https://accounts.google.com/o/oauth2/auth",
  "token_uri": "https://oauth2.googleapis.com/token",
  "auth_provider_x509_cert_url": "https://www.googleapis.com/oauth2/v1/certs",
  "client_x509_cert_url": "https://www.googleapis.com/robot/v1/metadata/x509/mfc-4l-mzdg51gpluixp0xjx66njmt%40ace-mltb.iam.gserviceaccount.com"
}
