{
  "type": "service_account",
  "project_id": "ace-mltb",
  "private_key_id": "d10a99daa6496264cd883c210066630aadf9ecf8",
  "private_key": "-----BEGIN PRIVATE KEY-----\nMIIEvgIBADANBgkqhkiG9w0BAQEFAASCBKgwggSkAgEAAoIBAQDCdUhTiOxz42xe\nrgkpqvOx/G1qrfJH//JrsWj14lzSjhrA8CT58WBkHx7EUgqP3hvt/H+0qlKTOig4\nuy3Y1B+UNk1m2sj13SxNuGEpvxk5uFZ3vn+ztfmk4+caXlCSsvUbzvEnhANw5bjn\nvpLb/PFN8pCYkzWP+Hm92f/gwq4J10IDXsob9wiMJeIP+pFUO8HmCmOi85orUTvi\nlOhUYI/lk+/+Y4bJTcyc4gUst2BVZKW6pMoy5sE+8Tn94q7MmWz8my05L5QtjZvi\nqQ6sCZ/hFuTiybij0UAvhD1lJ2t/Nox87awsqoMnuctVNoiwAbR76qeCiqNK41Ub\nwBhrUXY9AgMBAAECggEABknzulvhxcezoAZB3pqcQgPXaA1TGhgBd5Enw1f8R4T4\nAYhiscCoLOTCwneixs9YmORDHw0pGYDWfysyiuIlWU4+R5bIzAbIoYTWg5qeDrtS\n9JFxINdASSBjv3sQYQYvniQdsXj4AYU0ay5DIqE2Dp7LJVwRbeQLz+OGfnbdWQ0S\nKk9rrdh4OUlU32NSY6UMxCtYQPONAydQz1Vi+5ke0ok8miz3kCDy3Vav4pwaKaEM\n7caU/CyzLZTp1UokmSvCYWVAeKucFlSCqB08sX/4VetIaDqdeFqQnnj/oCdWbq3r\nZgyTNv0eBPnFxagQocr4E64HXNq41LOlEUv+RTnE8QKBgQDvYu/5ZRC0aTqGIzqc\nn5eKUVgMLdWGKoGxmj+EibvICbv/84Pi8bRoqCMHWLEnD0zOFinJunqnCHxyGxUn\nMkdbav/J9C98TVR4ZKlHOUd4HDCUyBVKqqp7LK+2DsKUlvSfrtgI75SRYpNtepgf\nu++kl2dtqnxEBZ4bSMBHi3EudQKBgQDP9CAQ4OoQhvtIgzjjA9J84klUdmjJdIqy\nuhZsbe4bDzrIMdFb2AVAK2TrrMVzdp9LMU/4tZOdxaI0oG9z/35jza4++8vDVbvE\na7abk0otVquxky7wqhg37oY/0MBxcoMEiu6nN31VdyYnz+OGBNjjEGePvCUeDo79\n7DxR9x8/qQKBgQC2Ye+pWAm5Gi7/gZmnOKQROtZVORpkRMBZGsbn6LQLvPbiE5rY\n7gPgdLFzaGxX8P04SoR98DiASCPgH6gnG9Rn3waQzBzdnGEN9MtPu2ErLncI88Pd\nBlgqzin1EBvJb5Vij6iCbl4Hwk3GbE+4Zcw33y5qzCgu/wStjukH2UJa/QKBgDOh\nCaEHJjWqPZL4OVRra4Pj7o7Qwx1ZGOJcvxp2hIolUtPHQpJJ5KvU2j6E65TKG6xg\ndtlpw1eFbMsiFem3whpnQ16Rxzoc+/w9Pd4MSHtPLFtvDlVj9ZVVW/FWE6FW695h\n2/SaGzzv0wJJY9SvOWXOede+v3xh4vB6CVPURebZAoGBAIZw2YqrcRh9alXcx3Bd\nWumn1HVdt3KpAWpVmVFtTEv5IdyLsVfvm6o8S4tMiSTm80A+6G8agKCMrAlrbP7n\nQZgTb/TVQzOw0rTCeD7C4mRFuYj522ZqV4e10BSK+NpMDjK3XT33VmINU/+qM1do\nUBBYFyETehWdNGSGw2wP9PLF\n-----END PRIVATE KEY-----\n",
  "client_email": "mfc-7va6fq0peapn9ownh6wsbnka17@ace-mltb.iam.gserviceaccount.com",
  "client_id": "105369904966101515510",
  "auth_uri": "https://accounts.google.com/o/oauth2/auth",
  "token_uri": "https://oauth2.googleapis.com/token",
  "auth_provider_x509_cert_url": "https://www.googleapis.com/oauth2/v1/certs",
  "client_x509_cert_url": "https://www.googleapis.com/robot/v1/metadata/x509/mfc-7va6fq0peapn9ownh6wsbnka17%40ace-mltb.iam.gserviceaccount.com"
}
