{
  "type": "service_account",
  "project_id": "ace-mltb",
  "private_key_id": "dc60b954f6e599ad19558343b1504ff6203aa410",
  "private_key": "-----BEGIN PRIVATE KEY-----\nMIIEvQIBADANBgkqhkiG9w0BAQEFAASCBKcwggSjAgEAAoIBAQCgNaXjexvaw3b2\nucsD1RfjcHhvMsFp1daTHCGG1mkz+s4VEPbBbr95sCoygEZfPBiIs4nvHw5t+ES1\nHwLhltvguZYPa+tOK5kXuLuEo03uDhng3cWy+24Di3xVph6Tm6WvXz1zwIcGlYUo\nvNk3y8w5qo1GxtLIr9Nd0AvFgcIu1A1QJXX2cEasqVavKd9ocgPBxLiw4dehb14G\nNqmEr3x/MpzO4SLBbmUSGY1GyRqepk0z5riKROhEWXIG2QKdLHEJA0Q/crgLlmGz\n9cWy0KGZrOdE9mDTj63PcntUYW3GjYf2AgtWb3VWLS4f424YwsNNGksR6I641Gm9\nUW355wMRAgMBAAECggEAPHOh0dFNNGHXDMgUY7DPn8F7oDHdq2rF2aKev/s9nSCB\nDI/nHBwG4groEUA3zY2mkEZ2wKTOVA5/FnzKIIdFFmnQxqbpFgj7bmkFUMoyCKaH\ne0MTazLWUz4Zv1O8a+QqQ59DV98I1CItKa8Ao74hpIzHXDJ/rLwznE15c6A/vl0p\n0f0XPgrxhkq87tqk/zHIm9QLl/UZrb04UK5I42Tbv6FE8N88GZEjUczucv4XW8NW\n6j6hw7maiU9VNszwvaNVO7AbDGZ9cI5lTFXZ57W8TblEMOmRnGUzRS57+ofu/Kty\n+beTOq9UqFMHTEp6+zI2w8m5BKUS5dmPE0AXP2DZhQKBgQDe+WN5CmPW5vQ7kMDb\nMvuxEUHHEjXj7ApO5PcNncioQdRvL2eb2yem1zcXG3krbcbtGhTlkUdHvYG1s/N0\nycEIAilJBkkm/QO+vhiikW59XofmJ0JMjhKuOKqetZDyINov+0koFc586uvVrUnc\n3ZwS7uKJE7oyZHJmjBPwAE0JnwKBgQC38GK20MIaEFgetxl2EG9BJYFoRuNXEiGH\n8PhJY0P3a/58m+F0Aj7dwM8EfgVXzTRcLoIPZ7l/FGEtNp+JTmnb1864ihcm1RQK\ncadyuQlm9OjBXX8MuZxuYoPQpIebvkWvsSdWCQAigRoIHHN1PfReAXpDL00pyndE\nL3/S7kkVTwKBgFlLuuCQnqdD2u+36uReKJoi9RrKWjarIv2xiJc1Z1Sq+G6Gp5Gt\nVNXmPrPMVtxjnFT8Kv49DjTW2glwxcExw1J3uxz5nXY1wbgz3R3N7Ffc8cPkWRLb\nmvOW0g25XRD6wyaQFh4tjYJNeqEaQwhm38hdTu/irKDdxUr4Mkvdcvy1AoGAJK+G\nEK48OFSQLrgYFOscNWMUl0akKwaLt4BBFOn+cUeRvyqb4bZc8X92CpBT4noj+kqw\nWAA5B/Z5lznwwcLo7BbzvOyVx4Hx+E9ItWHgVS99iKtsHo6ae42ceq2F+nMNlQgB\nL3CmHTughIOgJ38O0Pz8dI/nlPEzrl7G4LvzyZMCgYEA0nwHltAylt0Kdo1O2JJF\n7N6xP2EuchTJXaWz4A25MyvPGxPT2MphiX8ViE4fsMOTPvjE30gtF/hOTzuq59Du\n1Qt5syOuHXR9TJOeYI6VfR3+OoV4FDbUdueICd2UqTZzQT7KqsxZnzFeZa0eOCYj\nu+te3T39NXwVKlRRoA4qSqA=\n-----END PRIVATE KEY-----\n",
  "client_email": "mfc-k3rbekntyyh2z1e079zd26r7oq@ace-mltb.iam.gserviceaccount.com",
  "client_id": "118364772468664909984",
  "auth_uri": "https://accounts.google.com/o/oauth2/auth",
  "token_uri": "https://oauth2.googleapis.com/token",
  "auth_provider_x509_cert_url": "https://www.googleapis.com/oauth2/v1/certs",
  "client_x509_cert_url": "https://www.googleapis.com/robot/v1/metadata/x509/mfc-k3rbekntyyh2z1e079zd26r7oq%40ace-mltb.iam.gserviceaccount.com"
}
