{
  "type": "service_account",
  "project_id": "ace-mltb",
  "private_key_id": "147d1359373eb213207cd0a0fe7307625240ac52",
  "private_key": "-----BEGIN PRIVATE KEY-----\nMIIEvwIBADANBgkqhkiG9w0BAQEFAASCBKkwggSlAgEAAoIBAQDASq31WwhxvGXP\nQeFmDL6Vv3LQZ1m8TSUVyGLez/IdDJnj0bkc40uYBvqXDo+QFSswyDX5e3Evko9M\nu7LvPuDxdTBf1dx/A7nOYN4ZqBTmrLp0iaLXia86uRsIPYT9ilYdCrd7etAbzy+I\nPC56/toDuQAzCl/xKmcdFAVLtt6VywLlUBQ0x+R2JIb0iWlFvM1aeAPybluoTvM2\nEpEDBEFYQ0aMozK1csIJk989ztNu1ieRVC9Yrw7gUQNJ+d4YYZbbIfvgBJXec0gh\n6nRZfULaAAOpR/6wLefjxp8jRnM377HavFkPqBpm8CCfpk20PPcKiVZfTA7hb4m1\nYje6eHw5AgMBAAECggEADx3Pzxn47/f/iOuE7KDT2rHSNM/rHgJyh+PY4es2/VGg\nR2iVRNAZgToLORTL9Ge1nYAfvh0WKMc8vKuExYoL5O9xfhcx3kpMsQysaRftjLTH\nc6HeS1NnkxY6KcusSMI3QtE022AsPANtmSgh/0lJmkFQ4rJOGIdc08xfHjSiCuRn\no6faxs2L6+zMjfgFDQg50225sz5yeoD/4reLakJtqIlPSR7AgYuxFVijvwuf5RGA\ngpdszfO2sj148RE0tH0WVusxMPIyyNWXz5IF0qan5v/WxBIknBoSFVDJ4xGZ0KQm\nHACYIeIWaZNABEZE24iP5fieT9qqvPvZ9CrdlgCgAQKBgQD2E1Tngtqty3Z7Oub5\ng7GSrgq8mDxbOQ1545vshHgexiTCWnrvM8ugHKLtP3rxxiubr83hMAV4LGAXbrdG\n4djqARepSbbVQxY+rvMbNnvEkwN7No2HsH3KECCqDOb//p110CMQ+dTSVCUxujwu\nJOenJ/J/foncKTn3e5dhRlvU4QKBgQDIDAsnMk7d8pgomzIv54uu9sjZlwID9wiC\nrYXXSWMx7TOX83KEryiXid/MPsGl/0FTOvgGVr+eW3xKiamoa7Y/u8DG2oIJ/x7+\nD+TLY5QMtFDq1nWpLEZ3sh1AbHXdpYvvtf4Lii/jUepCACId4VmDopBEK9cjO9tj\nUWdfJ+C6WQKBgQDVe/YIGA1SBBeZV4O1atxurdGgxs5uMfQQEDhhHJf90tdnSgon\nZh89nDp5a75k7RE+M2qA+CF2ncEL80DMHPoMIcB+XPZi1J4C6dL9g+oio4y8o5pr\n4uFuoUlFXoY2B5Zh9J3Hh4dsphXSq4i0W84hxdVraMN/nsCshavSd7EJ4QKBgQCT\nIhiJ6byMDcPQCeWtyjW4qBYtw51d4THHO203XOiybe4Gkq3l3RaT7npGNNolB0q6\ntqJ5txAUnuEZyYqZLy/KTIOLPmdqhtP6tSHoXgMkHPNu5fGATeo+Wyicm6lNLldw\nJYEGZ8q0/Si5BnQRWg+Ge+hz23LOnVXNBLBtEl19cQKBgQDazqI6rAcEOuoXz1FP\n88c+I4HZnOrsutuGBJ0pAQKeo8QpFmV530e3H807BP+vghYArwI95MBbmUA08jZ0\nHnVN/u+KK/+pyK7cJtJJ5gPheIZQyfhNhCI8ufWqf5NZq4dWUJNncW/0sOhjs9C2\n6H92xpib0tt/L5xtxUfuJwNN5Q==\n-----END PRIVATE KEY-----\n",
  "client_email": "mfc-p17pe-mq412ztg3qdt32lbm3fs@ace-mltb.iam.gserviceaccount.com",
  "client_id": "108183449385000085159",
  "auth_uri": "https://accounts.google.com/o/oauth2/auth",
  "token_uri": "https://oauth2.googleapis.com/token",
  "auth_provider_x509_cert_url": "https://www.googleapis.com/oauth2/v1/certs",
  "client_x509_cert_url": "https://www.googleapis.com/robot/v1/metadata/x509/mfc-p17pe-mq412ztg3qdt32lbm3fs%40ace-mltb.iam.gserviceaccount.com"
}
