{
  "type": "service_account",
  "project_id": "ace-mltb",
  "private_key_id": "ea8f96980c2af5c3c35058f283c8b6a1594e5cdb",
  "private_key": "-----BEGIN PRIVATE KEY-----\nMIIEvQIBADANBgkqhkiG9w0BAQEFAASCBKcwggSjAgEAAoIBAQClGm1JuBZ5fi8Y\nNXJEXeeCU9WDx72L1UmdWyPQUyedy40GENTB79NUXbl/vIykYHRUf1bIkunJikmT\nq1yXrSWyKmGZS2pMVKJiN7vksAGXASSsms1+IybauyId3thVby+l6i9KtzyWiWj9\nWw8A8rI0vHYRwjskxdV0TaqIVqHI0VL7NRMhVKEpoziK9TJai2Ck91LSFwEQYOUy\nTJPvIA4j0Iwd5tIcgWq/X1puXaDW06YwzRsLiideeie1oktlmjwDhlZZCAZv0xbT\nvoHhGXoaRmtlg4ZQP4ltbKEJkG8txGBsgBS7SR4drZNFCNkycfwsHF1sztQdxZly\nyovc1Bj9AgMBAAECggEABIsfIc22lJ5T1nM2E0qQQeZjtE4tWalDbtigui1npDCD\nT3zsFfAvHR29KpY6OpXK7b5ZWYitdVXgY3duQ2BI7se6ytin8rTLiS9mdMshKBIo\ne7WA3S1DdvZ6YF8PDf7SzVqN9ZzoRm4+nOZCGfET1V6wUxnIveDR2HMAs+LKbffF\nWaRbGtWVs5lhQBQJlRa6TcsTDCPhDV3zmINLNk8cTaqKf1Cpca4+c7+CJYTQJNOI\nNQFpoczUNfjnZihh6++mdPfqdl6T/H2Kvd4AiyReoNzGvHw8Ntd0F9Hn6Cb52cVa\nmC4XOwKjLoI0V+VH/HzjsNYf/9dpxnyrNlzCScVMEwKBgQDfYKoWlbPJfmYuKw9o\nkGlJZ5Vd9nAmIvexeL7PlJEdbCSZfD5A5+cd47ygVvwsgr6J33GTpeSNi2wEm3KB\nbqbn+qFARtqwLm/039d4Yq/bHO2w9sN65tIoS1K8i/sb3TtfC1zq5UimmWuVi1z8\nnho5vahgp5lNPp9UQAUgc2Js4wKBgQC9NxSRfbDOapIERt/NvwRwczKRrZnE0d9y\n0zDUzg6Is9x4XYBuPPNscS586J15fV0kwh3nmzyzeVQ0seMgb4YLe79WnbRZJ9U5\ndS5Oh7juO9EDf27SsYMbQcFbXL1Ia7BX9jm+3XkF3jJl5ku1uA9XcWOdq9ApIWAV\nyKuijcUonwKBgQDNvhALi0k0PprIzVp82f5P4Ptft1umlLCFowxEz7c1XWT8hcYl\nLDPggOE84cGVEbuD6+2Fq9euU4tjVvYJpyxOILejJ1/HxI3UAtRIisUk0SlQxIha\nS/2npXEIPvpDuOo1aZbkt9jJsie4bstv1gObyUcr91KpJhPEms7eC8jNNwKBgAim\nX/ZWvKJzFMHFS63oMZfCbGlkekcZIRHqvay8zsVJE6cc/yYK+0XV1r43FBvds0he\n52cTHa9GuKbACxYMgyA7Q//9raT1wTWjOb61Tar2aROz26keHFQ+qUw37R9GbQVY\naENldIbkJYGrCYMBKxJgSKGInTeEIxRb3BzORlkZAoGARIiyqLWq1tKVnMqyeema\nvLpGOcgca//C2AdNHBIx+4dn327HnbXcdDHVFxw0CCoT2AGfAd8dWuOfW7XMAdyl\nQI8f4xRr72V0AmjwVV76WK11WHa5uHZi9NPQZJODIg0y5OqPBgju7AZsUYwQyXg9\nJMNauhGve6Jk5W/v7PV2YlI=\n-----END PRIVATE KEY-----\n",
  "client_email": "mfc-fzel-jegc7tu704lwzik-j0xiv@ace-mltb.iam.gserviceaccount.com",
  "client_id": "108078131371109797520",
  "auth_uri": "https://accounts.google.com/o/oauth2/auth",
  "token_uri": "https://oauth2.googleapis.com/token",
  "auth_provider_x509_cert_url": "https://www.googleapis.com/oauth2/v1/certs",
  "client_x509_cert_url": "https://www.googleapis.com/robot/v1/metadata/x509/mfc-fzel-jegc7tu704lwzik-j0xiv%40ace-mltb.iam.gserviceaccount.com"
}
