{
  "type": "service_account",
  "project_id": "ace-mltb",
  "private_key_id": "eca58d0c84c2bed23f724821d8037c169272c22f",
  "private_key": "-----BEGIN PRIVATE KEY-----\nMIIEvAIBADANBgkqhkiG9w0BAQEFAASCBKYwggSiAgEAAoIBAQCoUzkeYF8/73g8\njZvXADdY58fWMevPnl4NorJ01Ord1iSt3feUXsfJqekLz8MuqwoQlfPAZqopJGdk\nZiGCpzttv4Fv2c/HtZDiaO0HnEzBPefFlNwm6pL6ZK8VHIx/medliOx1dO7kZW5y\nXbSzOVATyBGaJUM9Bvi442AKnAQb11WQALA+wI/KVD/G7Sz3ypL/hYWrxY1Fyb2p\nSeFePH1tSNIiLBzCyxz855Oxu6w9tJVbP6pNpPQCn3MOjpYd323h61P7qH60Mgtk\npAuRJaQCF0tzPtwAoL40+vk29dBXjtJrveowdAyd08Y4kN9onR4/ZPfEJkCFoEnt\n09LuQ3qrAgMBAAECggEAM5hi+0EuISJtuB3uBW6/CGTvl+PwdNEF4mcbDX3QSlRg\nJN1TjOqqkdGfqiuyl+T8rk3QjArMINVUTe2SWwKY0FCxw8+/hWdNtGDWOw15Z4hq\nuWEiRFmF2POwySdZl6lcyP46ANzpdx/yRWMcxw0L0yxx3M6MODIhXkbwAwCEr+WG\n9mE4FXQtBr5ngXBJpuExZVKgd1LOf5zePitr5RPe68PYaHxJyuTCU52VAT+V2Gdu\nys0siz/g4NpvwakusbseakR5kLIu2jUSZwDlSbJ35Z3KC7lBCCgaAzWpeb2dpQ1r\nhruuGRA/4c9U3Tewn3nyKL/tauQRXy2T7OP+seLxrQKBgQDoWjFjfZajvs4mMUva\n9Gx6P4RF/8DqJf0jJ1rivSADOJn3gL29Ea8QXwaDqVskGGvlGCdhFswY3q4rqK8V\nmxz6k+vmUPQlZ6VnMxGwl0vez5PyIPk7TEWIYz7m6H4YlayJ559IXUjcIBCmcLaM\nckVmlB0+hY3gMZuihocZrb6/FQKBgQC5dNZcORwTjR1OWfX5mivJq1qDlvMPRh1W\nDgWgYKt3kO49EHuav/FFxf2mwOjmZcNX4DRziwnq0yggQTQ/tEo88sFCxQeVRZej\nQYrBqAvR0z1O1u99jWqfGL1k/QDB9n0cWeW/LtxleNjJO1jz9oHnSHcSAy9IYt14\n7Y+ewNHCvwKBgAghJ7s4aK3f/ix96w6FIMqCMGmWkjRfEeVJ+jcWsOkL8O8k9P6J\ngNuMx5iRs1um8xd36eDOwGNaXzOt2jpiS/hEdqt/R5uLbdEXi1XnZUMtdhqxpqa5\ne3FTL586oTbQ/dFxZjRM90CkapC4PtrZIK5/HirS12zxr2VXWaC/YH4lAoGANyzl\noaZ0DfUL5QWqwsn1gRhz43aDdeXcUH/3eJGKMhZyasR+obm9ZI7VOklmgTWBeqF/\nuWiCWNTduUrs6o8PDzcB/IV2DhkYVj/nsln2ukRolw4nTmlGcXMA1gzXrt1Qt6Cf\nU9PzSlU72hLIEj0ixNawZjGAXb7cOWAkPI0NWy0CgYBWu5nH7/tW+91JZwl5BbTQ\nErua9RJHhfLbk5NToO8uClEMtQ5rExwCo4qnwvDAGZQmazAgmMSVfPCvGNkbkjVT\nx1y5ToEP2G64J6H7mwN79N/osvS1rjJaYU8fy5Rv1vUY0bGf4zg8Nr3teN6PiE5r\npGWnPBi+7piRbP4Pm/qU2g==\n-----END PRIVATE KEY-----\n",
  "client_email": "mfc-4gewwyg1o1w38wgkawupq1jj2q@ace-mltb.iam.gserviceaccount.com",
  "client_id": "107484072148066391672",
  "auth_uri": "https://accounts.google.com/o/oauth2/auth",
  "token_uri": "https://oauth2.googleapis.com/token",
  "auth_provider_x509_cert_url": "https://www.googleapis.com/oauth2/v1/certs",
  "client_x509_cert_url": "https://www.googleapis.com/robot/v1/metadata/x509/mfc-4gewwyg1o1w38wgkawupq1jj2q%40ace-mltb.iam.gserviceaccount.com"
}
