{
  "type": "service_account",
  "project_id": "ace-mltb",
  "private_key_id": "f0783609de8f10ee59176fb5be96633ce83e7ed6",
  "private_key": "-----BEGIN PRIVATE KEY-----\nMIIEvQIBADANBgkqhkiG9w0BAQEFAASCBKcwggSjAgEAAoIBAQC2QHwXK8A40Pte\npDGX9eIcYDYhsSiyt7lv9cEsxKBkz/MjnY6XPFb5XKOIfbm8yDWmOs7GW6gYUzMV\nEywpVZ8dnzkaCxzVWT7KZuyraGdO2RS0JVieAjQWFe8/Fsg74rdeAzQUA0WS+CpJ\nJ8+exx75Lg0iUEUAo9vbuSe2iop2lr84pV6UleeFcP5GAKZdXXG992O4yGtXB+jI\nJgNtfzWKsNQcoszzJMvPfjLscCFrQZfO42nAHq1z83DDRK3cQqZnyW870g9H8u3z\nHLbUnRyuWpMp70GFmRBsVXiUkwe+s0k1TX2ruoAzpXgH4v5Zs9oZNEeTdVuYjoOY\nYD2Dh8m5AgMBAAECggEACf65r3hLR50SbsDOJXmAfTI7lcJxAHLPUoK6+uO3sNUE\nuRXOzaArXEFGiK7tzPAlR74JkVr9JNm0lKR4s2BKOdDTIV4C+/ez2AbSq53YrebS\n2gRYT/tqntwfbal9XBIVdgGdTWGr4vZa31M1xuKVt3BdRl36Qsw5u7BJAMZSof6P\nuIQOnIGSdZgaEZg5MvPCIv6yfFjCaZcsD+hnJJfxymqtuwY0mZVa+wEdeaJyHsw+\n3C6lKxUkf1uBJ4xO7PXHAKpzO8328OmfhbB4zfZAl4xcwRtStJxqdKYqefQLXJ9b\nqZGp/4cblbE51gUTw2YPcm4HJhDVkCPB13+icKrw7wKBgQDkYm0TKm8q7spFaeor\nPx6eLo4QE7nVHg9KjqGBEkaacpglZhilhaG/hiV8VER8AdbSOB91HbM0wSfeXHMH\nwR0/3d98qtgYVEnKX1WAyplDmmHzkDlVFgppfe9G5hOC2DKOdTrIYa3IVVmmCpV9\nKbnHvBk+MCeMWuFqWNoDw6oakwKBgQDMSgnGTLW26gR9+hzbyKVi4rLtyaZjPzWW\nxpukcEAd2ie/jjfXya6lXL+7ZXNytHOwCUL/rpzuvphMwA56accQTKB19gtr4P6p\ntc0WdHJ4hVruGyvUJvgA04zNQW/cyz44IEPWeqFoT4k9QD//uRm4G8fiz+PWyvR1\nAVtsPUreAwKBgGiMSiRY65T6xSurhaAQgAKniy7+6LYP0a4uxu4gIKP5S37rUuMK\n3nWfgi99H/Coot+PA4+Ibg37UjXvmlT1aV9gQTt/tfbFNxZmN+0CUdDprmdiIWy6\n7z9FgDCziEEAmXwvXB544KXxtF1XQQGQBVTS3bdjMeeFfuVBEWRhwM/zAoGAYQMf\n1S2EdZJ4A6MMpUqJT4Y8VjOWcjcIKcuzCcnMiOCaU5sj5bN+3kRHQKSSyHvtHEGp\nsWWoXK/h/0CNH5Cv2Yup/5qSHe7AwLL265zs51LctYntrFe9GhdcG/ThPEbAC0M3\nM9kUYUaz84RZYAT0s7ttlsYGem/y2sWENsh8jyUCgYEAtHxdanguR1d8Q1i+jn9l\n/LRHpgSGwQIj5jVb0DZpJ9Fw33A1Vk0IurNOjCyn/YusJh2Hf12L5tmUpRaYnnSh\n4cax/bXsTroEuXKq6phhJGRGlbGfMMAJBrSRlB1+7eUGebpZUbqyxf9jUbU9luRT\nDxLS7VYSvtGzoEd3y7w29x8=\n-----END PRIVATE KEY-----\n",
  "client_email": "mfc-k1j6-1as8vr5mt8z-rgxw6ogd3@ace-mltb.iam.gserviceaccount.com",
  "client_id": "116621423230596518309",
  "auth_uri": "https://accounts.google.com/o/oauth2/auth",
  "token_uri": "https://oauth2.googleapis.com/token",
  "auth_provider_x509_cert_url": "https://www.googleapis.com/oauth2/v1/certs",
  "client_x509_cert_url": "https://www.googleapis.com/robot/v1/metadata/x509/mfc-k1j6-1as8vr5mt8z-rgxw6ogd3%40ace-mltb.iam.gserviceaccount.com"
}
